,100,200,300,500,1128
0,-0.986766184385672,-0.981652952363024,-0.979340174156301,-0.977147434806669,-0.976279949590192
'difference',0,0.005113232022648,0.002312778206723,0.002192739349632,0.000867485216477
'filtered_useless',-0.989122929276409,-0.985461700321252,-0.985873659786703,,
'difference',0,-0.003661228955158,0.000411959465451,,
