dataset_name,model_class,rmse_avg,rmse_std,mae_avg,mae_std,validation_method,parameters,notes,timestamp,model
ml-latest-small,<class 'surprise.prediction_algorithms.baseline_only.BaselineOnly'>,0.9200710810341004,0.029220991738454147,0.7075090263841585,0.024810167684534687,<surprise.model_selection.split.LeaveOneOut object at 0x000002091B50A710>,,,2018-12-09 11:54:47.028287,<surprise.prediction_algorithms.baseline_only.BaselineOnly object at 0x000002091233ADA0>
ml-latest-small,<class 'surprise.prediction_algorithms.baseline_only.BaselineOnly'>,0.93085288253005,0.03964540405559394,0.714731374029149,0.028271241804151852,<surprise.model_selection.split.LeaveOneOut object at 0x000001C7F0CDA748>,,,2018-12-09 11:58:57.254812,<surprise.prediction_algorithms.baseline_only.BaselineOnly object at 0x000001C7F0AC9748>
ml-latest-small,<class 'surprise.prediction_algorithms.baseline_only.BaselineOnly'>,0.9126878866172505,0.02743768887930076,0.7023550471755706,0.02349880219330034,<surprise.model_selection.split.LeaveOneOut object at 0x000001E1E53F9780>,,,2018-12-09 11:59:51.225813,<surprise.prediction_algorithms.baseline_only.BaselineOnly object at 0x000001E1DC258DA0>
ml-latest-small,<class 'surprise.prediction_algorithms.random_pred.NormalPredictor'>,1.4599194397992357,0.040643695913112454,1.1694276676784552,0.035599965090841464,<surprise.model_selection.split.LeaveOneOut object at 0x000001E1E53BC518>,,,2018-12-09 11:59:51.225813,<surprise.prediction_algorithms.random_pred.NormalPredictor object at 0x000001E1DB5C28D0>
ml-latest-small,<class 'surprise.prediction_algorithms.knns.KNNBasic'>,0.9743980508719865,0.029465689467146807,0.7514630021819249,0.02173053049555759,<surprise.model_selection.split.LeaveOneOut object at 0x000001E1E53AEEB8>,,,2018-12-09 11:59:51.225813,<surprise.prediction_algorithms.knns.KNNBasic object at 0x000001E1DB5C2860>
ml-latest-small,<class 'surprise.prediction_algorithms.knns.KNNWithMeans'>,0.9445558438582303,0.033848779182005594,0.71954188381979,0.02634748251746192,<surprise.model_selection.split.LeaveOneOut object at 0x000001E1DB5A7780>,,,2018-12-09 11:59:51.225813,<surprise.prediction_algorithms.knns.KNNWithMeans object at 0x000001E1DB5A7898>
ml-latest-small,<class 'surprise.prediction_algorithms.knns.KNNWithZScore'>,0.9535367232003665,0.03894825050558447,0.7128680416465033,0.026178422041246728,<surprise.model_selection.split.LeaveOneOut object at 0x000001E1E53BC518>,,,2018-12-09 11:59:51.225813,<surprise.prediction_algorithms.knns.KNNWithZScore object at 0x000001E1DB5B25C0>
ml-latest-small,<class 'surprise.prediction_algorithms.knns.KNNBaseline'>,0.9216143946578648,0.02643703502544754,0.7024835936879337,0.020535482131284786,<surprise.model_selection.split.LeaveOneOut object at 0x000001E1E4239710>,,,2018-12-09 11:59:51.225813,<surprise.prediction_algorithms.knns.KNNBaseline object at 0x000001E1D336BDA0>
ml-latest-small,<class 'surprise.prediction_algorithms.matrix_factorization.SVD'>,0.908302256618067,0.028168921484754618,0.7001037234048635,0.01448156108382669,<surprise.model_selection.split.LeaveOneOut object at 0x000001E1DDDB9668>,,,2018-12-09 11:59:51.225813,<surprise.prediction_algorithms.matrix_factorization.SVD object at 0x000001E1E53F9390>
ml-latest-small,<class 'surprise.prediction_algorithms.matrix_factorization.SVDpp'>,0.894866171285587,0.030400903873473148,0.685299003373186,0.01949524525410858,<surprise.model_selection.split.LeaveOneOut object at 0x000001E1DB5C2550>,,,2018-12-09 11:59:51.225813,<surprise.prediction_algorithms.matrix_factorization.SVDpp object at 0x000001E1E53F92E8>
ml-latest-small,<class 'surprise.prediction_algorithms.matrix_factorization.NMF'>,0.9653514347841303,0.023912468741079294,0.7377887244197507,0.020387852367038797,<surprise.model_selection.split.LeaveOneOut object at 0x000001E1E53BC518>,,,2018-12-09 11:59:51.225813,<surprise.prediction_algorithms.matrix_factorization.NMF object at 0x000001E1E53F93C8>
ml-latest-small,<class 'surprise.prediction_algorithms.slope_one.SlopeOne'>,0.9217969048059572,0.030876080721429097,0.7044722438562094,0.020023525648840367,<surprise.model_selection.split.LeaveOneOut object at 0x000001E1E4239710>,,,2018-12-09 11:59:51.225813,<surprise.prediction_algorithms.slope_one.SlopeOne object at 0x000001E1E53F94A8>
ml-latest-small,<class 'surprise.prediction_algorithms.co_clustering.CoClustering'>,0.9709591496756204,0.027378825256111405,0.7441114204720404,0.02903339585881332,<surprise.model_selection.split.LeaveOneOut object at 0x000001E1DDDB9668>,,,2018-12-09 11:59:51.225813,<surprise.prediction_algorithms.co_clustering.CoClustering object at 0x000001E1E53F9668>
ml-latest-small,<class 'surprise.prediction_algorithms.knns.KNNBasic'>,0.9333043076947913,0.03587276444005798,0.7165126337578066,0.027788571047880583,<surprise.model_selection.split.LeaveOneOut object at 0x000001E1DB5A7780>,,,2018-12-09 11:59:51.225813,<surprise.prediction_algorithms.knns.KNNBasic object at 0x000001E1E53F96A0>
ml-latest-small,<class 'surprise.prediction_algorithms.knns.KNNWithMeans'>,0.9241376463485926,0.04450549168860654,0.7009403644945229,0.029220432204913476,<surprise.model_selection.split.LeaveOneOut object at 0x000001E1E4239710>,,,2018-12-09 11:59:51.225813,<surprise.prediction_algorithms.knns.KNNWithMeans object at 0x000001E1E53F96D8>
ml-latest-small,<class 'surprise.prediction_algorithms.knns.KNNWithZScore'>,0.9306513171326272,0.03252447581876648,0.7082004135769793,0.025191940167966317,<surprise.model_selection.split.LeaveOneOut object at 0x000001E1DDDB9668>,,,2018-12-09 11:59:51.225813,<surprise.prediction_algorithms.knns.KNNWithZScore object at 0x000001E1E53F9710>
ml-latest-small,<class 'surprise.prediction_algorithms.knns.KNNBaseline'>,0.8883252051306311,0.029366998404378203,0.6761240666044174,0.019986238071677386,<surprise.model_selection.split.LeaveOneOut object at 0x000001E1DB5A7780>,,,2018-12-09 11:59:51.225813,<surprise.prediction_algorithms.knns.KNNBaseline object at 0x000001E1E53F9748>
ml-latest-small,<class 'surprise.prediction_algorithms.baseline_only.BaselineOnly'>,0.8722612458878644,0.011579101634278029,0.6738049581489719,0.009066866775969953,<surprise.model_selection.split.KFold object at 0x000001EC323F96D8>,,,2018-12-09 14:05:11.587940,<surprise.prediction_algorithms.baseline_only.BaselineOnly object at 0x000001EC2922DD30>
ml-latest-small,<class 'surprise.prediction_algorithms.random_pred.NormalPredictor'>,1.4215730990948832,0.012673946459464484,1.1369778241600161,0.011333573750012047,<surprise.model_selection.split.KFold object at 0x000001EC323B8400>,,,2018-12-09 14:05:11.587940,<surprise.prediction_algorithms.random_pred.NormalPredictor object at 0x000001EC285B28D0>
ml-latest-small,<class 'surprise.prediction_algorithms.knns.KNNBasic'>,0.9511205154157508,0.008508549011197596,0.7293128979449393,0.00584063555528891,<surprise.model_selection.split.KFold object at 0x000001EC285B2978>,,,2018-12-09 14:05:11.587940,<surprise.prediction_algorithms.knns.KNNBasic object at 0x000001EC285B25C0>
ml-latest-small,<class 'surprise.prediction_algorithms.knns.KNNWithMeans'>,0.8974323459105333,0.010162645579119415,0.6869844365760204,0.0075410354890479685,<surprise.model_selection.split.KFold object at 0x000001EC323B8400>,,,2018-12-09 14:05:11.587940,<surprise.prediction_algorithms.knns.KNNWithMeans object at 0x000001EC285B2860>
ml-latest-small,<class 'surprise.prediction_algorithms.knns.KNNWithZScore'>,0.8965281740578618,0.006068594804446717,0.6812458514111919,0.0057747642512957,<surprise.model_selection.split.KFold object at 0x000001EC1E555588>,,,2018-12-09 14:05:11.587940,<surprise.prediction_algorithms.knns.KNNWithZScore object at 0x000001EC28597898>
ml-latest-small,<class 'surprise.prediction_algorithms.knns.KNNBaseline'>,0.8753257093590623,0.01005135658666341,0.6706222800339143,0.00597327616648647,<surprise.model_selection.split.KFold object at 0x000001EC323B1D68>,,,2018-12-09 14:05:11.587940,<surprise.prediction_algorithms.knns.KNNBaseline object at 0x000001EC285A25C0>
ml-latest-small,<class 'surprise.prediction_algorithms.matrix_factorization.SVD'>,0.8757848703695996,0.006484338551394537,0.6742145853025473,0.005402347891592518,<surprise.model_selection.split.KFold object at 0x000001EC323B8400>,,,2018-12-09 14:05:11.587940,<surprise.prediction_algorithms.matrix_factorization.SVD object at 0x000001EC323B1DA0>
ml-latest-small,<class 'surprise.prediction_algorithms.matrix_factorization.SVDpp'>,0.864492026228264,0.004453635088006512,0.6635507229672688,0.003682687884700667,<surprise.model_selection.split.KFold object at 0x000001EC285B2978>,,,2018-12-09 14:05:11.587940,<surprise.prediction_algorithms.matrix_factorization.SVDpp object at 0x000001EC323F92E8>
ml-latest-small,<class 'surprise.prediction_algorithms.matrix_factorization.NMF'>,0.9252941422801756,0.006609509809417044,0.7105841793534935,0.004479264773718715,<surprise.model_selection.split.KFold object at 0x000001EC323B8438>,,,2018-12-09 14:05:11.587940,<surprise.prediction_algorithms.matrix_factorization.NMF object at 0x000001EC323F9320>
ml-latest-small,<class 'surprise.prediction_algorithms.slope_one.SlopeOne'>,0.9010121253770365,0.009678259837444038,0.6900602128874798,0.00786251079912255,<surprise.model_selection.split.KFold object at 0x000001EC323B1D68>,,,2018-12-09 14:05:11.587940,<surprise.prediction_algorithms.slope_one.SlopeOne object at 0x000001EC323F9358>
ml-latest-small,<class 'surprise.prediction_algorithms.co_clustering.CoClustering'>,0.9448382243965543,0.008435126075128956,0.7327162662324306,0.006547864932321223,<surprise.model_selection.split.KFold object at 0x000001EC323B8400>,,,2018-12-09 14:05:11.587940,<surprise.prediction_algorithms.co_clustering.CoClustering object at 0x000001EC323F95C0>
ml-latest-small,<class 'surprise.prediction_algorithms.knns.KNNBasic'>,0.9103798102310936,0.008885721940499004,0.7011303883619063,0.0061871231624244915,<surprise.model_selection.split.KFold object at 0x000001EC323B1DD8>,,,2018-12-09 14:05:11.587940,<surprise.prediction_algorithms.knns.KNNBasic object at 0x000001EC323F95F8>
ml-latest-small,<class 'surprise.prediction_algorithms.knns.KNNWithMeans'>,0.893258963724475,0.009945763213393249,0.6840098090916412,0.006049139735427069,<surprise.model_selection.split.KFold object at 0x000001EC323B1D68>,,,2018-12-09 14:05:11.587940,<surprise.prediction_algorithms.knns.KNNWithMeans object at 0x000001EC323F9630>
ml-latest-small,<class 'surprise.prediction_algorithms.knns.KNNWithZScore'>,0.8998857898677997,0.009833069697168614,0.68852933261292,0.008077704413471073,<surprise.model_selection.split.KFold object at 0x000001EC323B8400>,,,2018-12-09 14:05:11.587940,<surprise.prediction_algorithms.knns.KNNWithZScore object at 0x000001EC323F9668>
ml-latest-small,<class 'surprise.prediction_algorithms.knns.KNNBaseline'>,0.8658308651842421,0.010720292147870163,0.6644178140472213,0.008242346504915966,<surprise.model_selection.split.KFold object at 0x000001EC323B1DD8>,,,2018-12-09 14:05:11.587940,<surprise.prediction_algorithms.knns.KNNBaseline object at 0x000001EC323F96A0>
ml-20m,<class 'surprise.prediction_algorithms.baseline_only.BaselineOnly'>,0.871673999385741,0.014469593755203961,0.6700643336416907,0.01150849349938324,<surprise.model_selection.split.LeaveOneOut object at 0x000001E88B3697B8>,,,2018-12-09 19:36:45.818177,<surprise.prediction_algorithms.baseline_only.BaselineOnly object at 0x000001E8821C1E48>
ml-20m,<class 'surprise.prediction_algorithms.random_pred.NormalPredictor'>,1.4524371432870362,0.0178588675172296,1.1657821112225477,0.018142566186354736,<surprise.model_selection.split.LeaveOneOut object at 0x000001E88AC76A58>,,,2018-12-09 19:36:45.818177,<surprise.prediction_algorithms.random_pred.NormalPredictor object at 0x000001E8815328D0>
ml-20m,<class 'surprise.prediction_algorithms.knns.KNNBasic'>,0.8727120260252725,0.007763901516769932,0.6708916981930314,0.007273234954026247,<surprise.model_selection.split.LeaveOneOut object at 0x000001E88B320DD8>,,,2018-12-09 19:36:45.818177,<surprise.prediction_algorithms.knns.KNNBasic object at 0x000001E881532860>
ml-20m,<class 'surprise.prediction_algorithms.knns.KNNWithMeans'>,0.8678168707175329,0.015285403257388553,0.6648335467775708,0.009645107990114817,<surprise.model_selection.split.LeaveOneOut object at 0x000001E88B32B4E0>,,,2018-12-09 19:36:45.818177,<surprise.prediction_algorithms.knns.KNNWithMeans object at 0x000001E881517898>
ml-20m,<class 'surprise.prediction_algorithms.knns.KNNWithZScore'>,0.8626325151751134,0.01556355398130985,0.6584907243575282,0.011579513700129497,<surprise.model_selection.split.LeaveOneOut object at 0x000001E88A1AB630>,,,2018-12-09 19:36:45.818177,<surprise.prediction_algorithms.knns.KNNWithZScore object at 0x000001E8815225C0>
ml-20m,<class 'surprise.prediction_algorithms.knns.KNNBaseline'>,0.8413805247566668,0.016584599433191072,0.6468737628188023,0.01014899090448697,<surprise.model_selection.split.LeaveOneOut object at 0x000001E88B32B4E0>,,,2018-12-09 19:36:45.818177,<surprise.prediction_algorithms.knns.KNNBaseline object at 0x000001E8F92EBDA0>
ml-20m,<class 'surprise.prediction_algorithms.matrix_factorization.SVD'>,0.8275174756430526,0.016065835360456155,0.6340574675585102,0.014354777634016722,<surprise.model_selection.split.LeaveOneOut object at 0x000001E88AC76A58>,,,2018-12-09 19:36:45.818177,<surprise.prediction_algorithms.matrix_factorization.SVD object at 0x000001E88B3693C8>
ml-20m,<class 'surprise.prediction_algorithms.matrix_factorization.SVDpp'>,0.8050431609117229,0.011879270717126826,0.6170032140485111,0.008139329876363734,<surprise.model_selection.split.LeaveOneOut object at 0x000001E881532550>,,,2018-12-09 19:36:45.818177,<surprise.prediction_algorithms.matrix_factorization.SVDpp object at 0x000001E88B369358>
ml-20m,<class 'surprise.prediction_algorithms.matrix_factorization.NMF'>,0.8733076452029394,0.016373434181677214,0.6696747375411908,0.01175392453221389,<surprise.model_selection.split.LeaveOneOut object at 0x000001E88B320E48>,,,2018-12-09 19:36:45.818177,<surprise.prediction_algorithms.matrix_factorization.NMF object at 0x000001E88B369400>
ml-20m,<class 'surprise.prediction_algorithms.slope_one.SlopeOne'>,0.8641211492022635,0.01470603644417132,0.6614481708265111,0.010619507549866887,<surprise.model_selection.split.LeaveOneOut object at 0x000001E8F743B160>,,,2018-12-09 19:36:45.818177,<surprise.prediction_algorithms.slope_one.SlopeOne object at 0x000001E88B3694E0>
ml-20m,<class 'surprise.prediction_algorithms.co_clustering.CoClustering'>,0.8755771207076599,0.016722135431762222,0.6771040383264337,0.012319916823127374,<surprise.model_selection.split.LeaveOneOut object at 0x000001E881532550>,,,2018-12-09 19:36:45.818177,<surprise.prediction_algorithms.co_clustering.CoClustering object at 0x000001E88B3696A0>
ml-20m,<class 'surprise.prediction_algorithms.knns.KNNBasic'>,0.871963870985508,0.015834442841559188,0.667333982952495,0.012428154802348478,<surprise.model_selection.split.LeaveOneOut object at 0x000001E88B32B550>,,,2018-12-09 19:36:45.818177,<surprise.prediction_algorithms.knns.KNNBasic object at 0x000001E88B3696D8>
