dataset_name,model_class,rmse_avg,rmse_std,mae_avg,mae_std,parameters,notes,timestamp,model
ml-20m-try,<class 'surprise.prediction_algorithms.baseline_only.BaselineOnly'>,0.8399236339349807,0.0022666683529383893,0.6455167225509948,0.0015587094092096034,,,2018-11-26 16:37:21.193825,<surprise.prediction_algorithms.baseline_only.BaselineOnly object at 0x0000019DAF8EF2E8>
ml-20m-try,<class 'surprise.prediction_algorithms.random_pred.NormalPredictor'>,1.4470776332206898,0.0027255108837568355,1.1591866446241554,0.0022280402190565426,,,2018-11-26 16:37:21.193825,<surprise.prediction_algorithms.random_pred.NormalPredictor object at 0x0000019DAF8EF278>
ml-20m-try,<class 'surprise.prediction_algorithms.knns.KNNBasic'>,0.860140638653184,0.0020716665305200426,0.6568104948059514,0.0015023491958762048,,,2018-11-26 16:37:21.193825,<surprise.prediction_algorithms.knns.KNNBasic object at 0x0000019DAF8DC2B0>
ml-20m-try,<class 'surprise.prediction_algorithms.knns.KNNWithMeans'>,0.8420127648179246,0.001742838256408277,0.6478837815998608,0.0013435504759278514,,,2018-11-26 16:37:21.193825,<surprise.prediction_algorithms.knns.KNNWithMeans object at 0x0000019DAF8E4240>
ml-20m-try,<class 'surprise.prediction_algorithms.knns.KNNWithZScore'>,0.8401305558880103,0.0026226663844751146,0.6403273881910647,0.0015837622191940668,,,2018-11-26 16:37:21.193825,<surprise.prediction_algorithms.knns.KNNWithZScore object at 0x0000019DAF8E4F98>
ml-20m-try,<class 'surprise.prediction_algorithms.knns.KNNBaseline'>,0.8226357598348869,0.001972455134393816,0.6298253349032032,0.0014647048697808136,,,2018-11-26 16:37:21.193825,<surprise.prediction_algorithms.knns.KNNBaseline object at 0x0000019DB9711C88>
ml-20m-try,<class 'surprise.prediction_algorithms.matrix_factorization.SVD'>,0.7965712735051529,0.002218560629383629,0.6075994862160596,0.0016329946158774053,,,2018-11-26 16:37:21.193825,<surprise.prediction_algorithms.matrix_factorization.SVD object at 0x0000019DB9711B00>
ml-20m-try,<class 'surprise.prediction_algorithms.matrix_factorization.NMF'>,0.8477060673835901,0.0029098319384009276,0.6504311361522446,0.0023283442576816247,,,2018-11-26 16:37:21.193825,<surprise.prediction_algorithms.matrix_factorization.NMF object at 0x0000019DB9711B38>
ml-20m-try,<class 'surprise.prediction_algorithms.slope_one.SlopeOne'>,0.8412699061684596,0.0017281093373975377,0.6452056662047092,0.0014536633877565864,,,2018-11-26 16:37:21.193825,<surprise.prediction_algorithms.slope_one.SlopeOne object at 0x0000019DB9711C18>
