explanation_term,userId,value
Genre: Comedy,0,0.75
imdb top 250,0,0.7035875
Original,0,0.68785625
Storytelling,0,0.6549625000000001
Toller Film,0,0.6520374999999999
guter Soundtrack,0,0.6316312500000001
Großartiges Schauspielern,0,0.60179375
ausgezeichnetes Skript,0,0.6007187500000001
tolles ende,0,0.57985
Genre: Drama,0,0.575
Genre: Drama,1,0.6
imdb top 250,1,0.5510249999999999
Original,1,0.5445562500000001
Großartiges Schauspielern,1,0.5365249999999999
Genre: Comedy,1,0.525
Storytelling,1,0.50855625
Drama,1,0.502675
Toller Film,1,0.5025562499999999
ausgezeichnetes Skript,1,0.4922937500000001
Oscar (beste Regie),1,0.48515625
Original,3,0.7710145833333333
imdb top 250,3,0.7022812499999997
Toller Film,3,0.6951
Dialog,3,0.6471145833333334
tolles ende,3,0.6445624999999999
Storytelling,3,0.6380645833333334
klug,3,0.5926812499999999
Story,3,0.586675
interessant,3,0.5817833333333333
guter Soundtrack,3,0.5792291666666667
Original,4,0.5260232142857142
imdb top 250,4,0.4794767857142858
Toller Film,4,0.4711642857142858
Dialog,4,0.4513892857142857
guter Soundtrack,4,0.4423089285714285
tolles ende,4,0.4359178571428571
Storytelling,4,0.431075
Story,4,0.3965410714285714
interessant,4,0.3959785714285714
Großartiges Schauspielern,4,0.3952857142857144
Original,6,0.6569159999999998
imdb top 250,6,0.563153
Toller Film,6,0.561917
tolles ende,6,0.5578814999999999
Storytelling,6,0.5309554999999999
Großartiges Schauspielern,6,0.525895
Dialog,6,0.5209229999999999
guter Soundtrack,6,0.5099575000000001
Mentor,6,0.5047444999999999
Story,6,0.5027530000000001
Original,9,0.7098093750000001
imdb top 250,9,0.651975
Toller Film,9,0.637034375
Storytelling,9,0.6343875000000001
guter Soundtrack,9,0.61355625
tolles ende,9,0.6019687499999999
Story,9,0.589421875
unterhaltsam,9,0.5850937499999999
Dialog,9,0.5830093749999999
klug,9,0.5726125000000001
Original,10,0.739875
imdb top 250,10,0.7385274999999998
Toller Film,10,0.7070875000000001
Storytelling,10,0.670895
tolles ende,10,0.668795
Story,10,0.6480625000000001
guter Soundtrack,10,0.6438375000000001
Großartiges Schauspielern,10,0.63042
ausgezeichnetes Skript,10,0.6300049999999999
gutes Schauspielern,10,0.6187275
Original,11,0.5427138888888888
pg-13,11,0.5024222222222223
Toller Film,11,0.4872
lustiger Film,11,0.48085
Mentor,11,0.4769166666666667
Schicksal,11,0.4713833333333333
Story,11,0.4701055555555556
tolles ende,11,0.4575027777777778
unterhaltsam,11,0.4466166666666668
Verfolgungsjagd,11,0.4427694444444445
Original,12,0.7399625
imdb top 250,12,0.6970000000000001
Story,12,0.676621875
Toller Film,12,0.676390625
Storytelling,12,0.6759562499999999
tolles ende,12,0.642590625
Mentor,12,0.6221687499999999
Schicksal,12,0.60765625
pg-13,12,0.5894062500000001
optisch atemberaubend,12,0.588175
Genre: Comedy,15,0.85
imdb top 250,15,0.78725625
Original,15,0.781825
Toller Film,15,0.741325
Storytelling,15,0.7339437499999999
guter Soundtrack,15,0.6978875
Großartiges Schauspielern,15,0.65985625
ausgezeichnetes Skript,15,0.6537625
tolles ende,15,0.6503875
interessant,15,0.6434875
Schicksal,18,0.566382142857143
Original,18,0.5559392857142856
Genre: Romance,18,0.5428571428571429
Feel-god,18,0.5382178571428571
tolles ende,18,0.5029035714285713
Toller Film,18,0.5007785714285715
Story,18,0.4960571428571429
Happy End,18,0.4858035714285714
Katastrophe,18,0.4772428571428571
Mentor,18,0.4764785714285715
Original,19,0.545959375
lustiger Film,19,0.49481875
Toller Film,19,0.4821375
pg-13,19,0.47966875
Story,19,0.4668
Mentor,19,0.44525625
tolles ende,19,0.4373593750000001
Kindheit,19,0.4266156250000001
unterhaltsam,19,0.4221875
Verfolgungsjagd,19,0.418984375
imdb top 250,20,0.78755625
Original,20,0.72586875
Großartiges Schauspielern,20,0.716
Storytelling,20,0.7124375000000001
Oscar (beste Regie),20,0.689175
Toller Film,20,0.67839375
ausgezeichnetes Skript,20,0.6706749999999999
tolles ende,20,0.665725
guter Soundtrack,20,0.6534
interessant,20,0.6455562499999999
Original,21,0.7713925
imdb top 250,21,0.7099300000000001
Toller Film,21,0.7031449999999999
guter Soundtrack,21,0.693635
Storytelling,21,0.667155
tolles ende,21,0.6566350000000002
Mentor,21,0.6453200000000001
ausgezeichnetes Skript,21,0.6388225000000001
Story,21,0.63385
klug,21,0.6211650000000001
Original,22,0.618034375
imdb top 250,22,0.5692937499999999
Story,22,0.561015625
Storytelling,22,0.5547375000000001
Kindheit,22,0.54829375
Mentor,22,0.530903125
Toller Film,22,0.530359375
Schicksal,22,0.522390625
tolles ende,22,0.5091374999999999
unterhaltsam,22,0.4898187500000001
Original,23,0.602975
Toller Film,23,0.579371875
Story,23,0.5629781250000001
tolles ende,23,0.545709375
Mentor,23,0.5420031249999999
imdb top 250,23,0.5329218749999999
Storytelling,23,0.523890625
pg-13,23,0.51746875
unterhaltsam,23,0.51376875
guter Soundtrack,23,0.5001187500000001
Original,25,0.7054535714285715
Toller Film,25,0.6703392857142857
imdb top 250,25,0.6492214285714286
Story,25,0.6463464285714287
Storytelling,25,0.6181357142857145
unterhaltsam,25,0.5995821428571427
tolles ende,25,0.5950321428571428
Kindheit,25,0.5880357142857143
Genre: Adventure,25,0.5857142857142856
Mentor,25,0.5630678571428571
Original,26,0.6920833333333334
Storytelling,26,0.5802375000000001
Toller Film,26,0.5698770833333333
Story,26,0.5677354166666666
tolles ende,26,0.5660395833333333
imdb top 250,26,0.5554041666666667
guter Soundtrack,26,0.5503229166666667
lustiger Film,26,0.5384145833333334
unterhaltsam,26,0.5255875000000001
Dialog,26,0.5175395833333334
Original,28,0.6428375
imdb top 250,28,0.6196781250000001
guter Soundtrack,28,0.58831875
Storytelling,28,0.5867062500000001
Toller Film,28,0.57220625
Genre: Comedy,28,0.5625
Story,28,0.554278125
tolles ende,28,0.5266343749999999
unterhaltsam,28,0.50781875
Dialog,28,0.500275
Original,29,0.7038392857142859
Genre: Thriller,29,0.6428571428571429
Toller Film,29,0.6411464285714287
tolles ende,29,0.6298464285714286
unterhaltsam,29,0.6210571428571429
Aktion,29,0.5901714285714286
Story,29,0.5812392857142856
Dialog,29,0.5810285714285714
Storytelling,29,0.5808714285714286
pg-13,29,0.5713107142857142
Genre: Comedy,30,0.7666666666666667
imdb top 250,30,0.7373083333333333
Original,30,0.6935750000000002
Toller Film,30,0.6725083333333333
Storytelling,30,0.663475
guter Soundtrack,30,0.6584416666666667
ausgezeichnetes Skript,30,0.6155166666666666
unterhaltsam,30,0.5924916666666667
Großartiges Schauspielern,30,0.5826583333333335
tolles ende,30,0.5813166666666667
Aktion,31,0.63848125
unterhaltsam,31,0.5680031249999999
pg-13,31,0.5635375
Verfolgungsjagd,31,0.55986875
Original,31,0.5555687500000001
lustiger Film,31,0.550334375
Story,31,0.522503125
Katastrophe,31,0.5153187499999999
Toller Film,31,0.5012000000000001
Genre: Action,31,0.5
Original,33,0.7941661764705883
tolles ende,33,0.6837176470588237
Storytelling,33,0.6824000000000001
Toller Film,33,0.6714308823529412
imdb top 250,33,0.6583705882352942
Story,33,0.6569779411764706
Dialog,33,0.6485794117647061
guter Soundtrack,33,0.6418485294117646
Mentor,33,0.6257161764705883
heftig,33,0.6196323529411765
imdb top 250,34,0.579432142857143
Großartiges Schauspielern,34,0.5315357142857143
Oscar (beste Regie),34,0.5260357142857143
Original,34,0.5181214285714286
Storytelling,34,0.5133642857142858
ausgezeichnetes Skript,34,0.4955428571428572
Genre: Drama,34,0.4857142857142857
tolles ende,34,0.4819714285714286
Toller Film,34,0.4741535714285715
gutes Schauspielern,34,0.4741071428571429
imdb top 250,36,0.6154305555555555
Original,36,0.5929611111111109
Storytelling,36,0.5736305555555556
Toller Film,36,0.5440916666666668
tolles ende,36,0.5339972222222222
Story,36,0.5182611111111111
interessant,36,0.5173027777777779
ausgezeichnetes Skript,36,0.5149083333333333
Großartiges Schauspielern,36,0.5071111111111111
Oscar (beste Regie),36,0.5035277777777777
imdb top 250,38,0.615309375
Original,38,0.6078093749999999
Storytelling,38,0.5688906250000001
Toller Film,38,0.55086875
guter Soundtrack,38,0.54211875
tolles ende,38,0.5315281249999999
ausgezeichnetes Skript,38,0.5180968750000001
klug,38,0.5171625
Dialog,38,0.51018125
Großartiges Schauspielern,38,0.50725
Original,39,0.5005090909090909
imdb top 250,39,0.4736681818181818
Toller Film,39,0.43852840909090907
Storytelling,39,0.4301988636363635
tolles ende,39,0.4250647727272727
guter Soundtrack,39,0.4083977272727273
Mentor,39,0.3981522727272727
Großartiges Schauspielern,39,0.3967772727272728
Dialog,39,0.3943784090909092
Story,39,0.3943613636363637
Original,40,0.535878125
imdb top 250,40,0.5209343749999998
Genre: Comedy,40,0.5
Storytelling,40,0.49839375
Story,40,0.474665625
tolles ende,40,0.45615
Toller Film,40,0.449409375
guter Soundtrack,40,0.446525
Mentor,40,0.423328125
Kindheit,40,0.4229625
Original,42,0.6448666666666667
imdb top 250,42,0.6378729166666667
Toller Film,42,0.5868541666666667
Storytelling,42,0.5781875
tolles ende,42,0.5568895833333333
ausgezeichnetes Skript,42,0.5484875
interessant,42,0.5373041666666667
Großartiges Schauspielern,42,0.5367999999999999
klug,42,0.5363854166666667
guter Soundtrack,42,0.5304354166666667
Original,46,0.6730861111111113
imdb top 250,46,0.6472916666666667
Toller Film,46,0.6094888888888889
Storytelling,46,0.6045027777777777
tolles ende,46,0.6002888888888889
Großartiges Schauspielern,46,0.5745361111111112
Aktion,46,0.57245
interessant,46,0.5695666666666667
ausgezeichnetes Skript,46,0.5670972222222221
Oscar (beste Regie),46,0.5643666666666667
Original,49,0.5812214285714286
pg-13,49,0.5428321428571429
tolles ende,49,0.5101285714285715
Mentor,49,0.5096357142857143
Toller Film,49,0.5055571428571428
Story,49,0.5039928571428571
lustiger Film,49,0.4993107142857142
Dialog,49,0.4884285714285716
unterhaltsam,49,0.4689678571428571
gutes Schauspielern,49,0.4687928571428571
Original,50,0.4993982142857143
Story,50,0.4377892857142858
Storytelling,50,0.4365303571428572
imdb top 250,50,0.4305107142857144
Toller Film,50,0.42979642857142863
tolles ende,50,0.4186928571428572
Dialog,50,0.3895678571428572
Mentor,50,0.3882375
unterhaltsam,50,0.3790089285714285
optisch atemberaubend,50,0.3770839285714285
Original,51,0.6291499999999999
Toller Film,51,0.5723843750000001
imdb top 250,51,0.556734375
Story,51,0.55609375
guter Soundtrack,51,0.53561875
Storytelling,51,0.5351437499999999
Mentor,51,0.5256375
tolles ende,51,0.52011875
unterhaltsam,51,0.519396875
pg-13,51,0.5119125
Original,52,0.66768
Story,52,0.618745
Toller Film,52,0.59559
pg-13,52,0.5888424999999999
unterhaltsam,52,0.5855175
tolles ende,52,0.5820025
Aktion,52,0.5807100000000001
Mentor,52,0.5760400000000001
Storytelling,52,0.5717774999999999
Schicksal,52,0.5550925
Original,53,0.6974937500000001
Toller Film,53,0.59330625
tolles ende,53,0.5924968749999999
Storytelling,53,0.578553125
Story,53,0.5695093750000001
unterhaltsam,53,0.566875
Dialog,53,0.5649531250000001
Verfolgungsjagd,53,0.5592374999999999
lustiger Film,53,0.5480875000000001
Genre: Adventure,53,0.5375
imdb top 250,57,0.7156875
Original,57,0.714971875
Großartiges Schauspielern,57,0.6834687500000001
Storytelling,57,0.655621875
Oscar (beste Regie),57,0.6229093750000001
ausgezeichnetes Skript,57,0.6223406250000001
interessant,57,0.62199375
guter Soundtrack,57,0.6196375
tolles ende,57,0.612209375
erzählt,57,0.5882281250000001
Original,58,0.6955305555555555
Story,58,0.6800277777777777
Toller Film,58,0.6559583333333333
imdb top 250,58,0.6479833333333334
Kindheit,58,0.6061277777777778
Mentor,58,0.5898777777777777
tolles ende,58,0.581713888888889
Storytelling,58,0.5801083333333333
Schicksal,58,0.5451305555555555
pg-13,58,0.5379944444444444
Original,59,0.7274125
guter Soundtrack,59,0.704615625
imdb top 250,59,0.696659375
Großartiges Schauspielern,59,0.689053125
ausgezeichnetes Skript,59,0.68324375
Storytelling,59,0.6539718750000001
tolles ende,59,0.6287031249999999
Toller Film,59,0.6277124999999999
interessant,59,0.614653125
sozialer Kommentar,59,0.6072562499999999
Original,60,0.7417714285714285
Story,60,0.7024642857142858
Toller Film,60,0.6793785714285714
unterhaltsam,60,0.6606714285714286
lustiger Film,60,0.6569642857142857
pg-13,60,0.6563142857142857
Mentor,60,0.6404642857142856
tolles ende,60,0.6230357142857142
Verfolgungsjagd,60,0.6028
Schicksal,60,0.5845071428571428
Original,61,0.656175
Toller Film,61,0.6316531249999999
imdb top 250,61,0.60030625
tolles ende,61,0.5725843749999999
Story,61,0.560578125
unterhaltsam,61,0.5482281250000001
guter Soundtrack,61,0.542853125
Storytelling,61,0.539103125
Mentor,61,0.535340625
Dialog,61,0.534225
Original,62,0.5680030612244898
Toller Film,62,0.4902556122448981
tolles ende,62,0.4823454081632653
imdb top 250,62,0.4695295918367345
Dialog,62,0.4533000000000002
Storytelling,62,0.4531897959183672
Großartiges Schauspielern,62,0.4432887755102041
Mentor,62,0.4431897959183674
guter Soundtrack,62,0.44028469387755104
Story,62,0.43520816326530615
Original,65,0.6792888888888888
Toller Film,65,0.6396527777777777
imdb top 250,65,0.6135083333333333
Storytelling,65,0.6109888888888888
tolles ende,65,0.5940722222222222
Story,65,0.575575
guter Soundtrack,65,0.5565083333333334
Mentor,65,0.5537472222222222
unterhaltsam,65,0.5524305555555555
interessant,65,0.5386
Aktion,67,0.5685074999999999
Original,67,0.5566800000000001
pg-13,67,0.5447574999999999
unterhaltsam,67,0.5327974999999999
Story,67,0.526385
Verfolgungsjagd,67,0.507925
lustiger Film,67,0.4957975000000001
tolles ende,67,0.49336
Toller Film,67,0.4928475000000001
Mentor,67,0.4847250000000001
imdb top 250,69,0.7081638888888889
Original,69,0.6953916666666666
Storytelling,69,0.668588888888889
Großartiges Schauspielern,69,0.6205194444444445
tolles ende,69,0.6030972222222222
interessant,69,0.5949416666666668
Toller Film,69,0.586663888888889
ausgezeichnetes Skript,69,0.5858583333333334
guter Soundtrack,69,0.5842277777777778
Oscar (beste Regie),69,0.5766972222222222
Original,70,0.5604416666666667
Toller Film,70,0.4959777777777778
Story,70,0.4717194444444445
Storytelling,70,0.4672500000000001
tolles ende,70,0.4572166666666666
unterhaltsam,70,0.4515305555555555
imdb top 250,70,0.4380194444444444
Dialog,70,0.4191722222222222
klug,70,0.4179333333333333
Mentor,70,0.4164444444444445
Original,71,0.6445375
Story,71,0.604921875
imdb top 250,71,0.5885374999999999
Genre: Comedy,71,0.5875
Kindheit,71,0.5776937500000001
Toller Film,71,0.57134375
Storytelling,71,0.527578125
Mentor,71,0.516421875
lustiger Film,71,0.509953125
guter Soundtrack,71,0.5031312499999999
imdb top 250,73,0.8109375
Großartiges Schauspielern,73,0.7929656249999999
Original,73,0.778084375
Storytelling,73,0.7677375
ausgezeichnetes Skript,73,0.76030625
guter Soundtrack,73,0.7481156250000001
tolles ende,73,0.710715625
interessant,73,0.70798125
Genre: Drama,73,0.7
Oscar (beste Regie),73,0.698196875
Original,74,0.6522022727272726
Story,74,0.6129249999999999
Toller Film,74,0.5871590909090909
imdb top 250,74,0.5721136363636364
Storytelling,74,0.5445681818181819
Kindheit,74,0.5275818181818182
unterhaltsam,74,0.5268590909090909
tolles ende,74,0.5162136363636363
Mentor,74,0.5131977272727273
lustiger Film,74,0.5054386363636364
Original,76,0.6021694444444445
ausgezeichnetes Skript,76,0.5938611111111112
Großartiges Schauspielern,76,0.5794972222222222
imdb top 250,76,0.571375
Oscar (beste Regie),76,0.5586472222222223
tolles ende,76,0.551263888888889
Genre: Romance,76,0.5333333333333333
Toller Film,76,0.5302611111111111
Drama,76,0.5252888888888889
Storytelling,76,0.5152666666666667
Genre: Comedy,77,0.82
Original,77,0.7073249999999999
imdb top 250,77,0.6781650000000001
Story,77,0.652395
Storytelling,77,0.6418050000000001
Kindheit,77,0.6266550000000001
guter Soundtrack,77,0.6144350000000001
Schicksal,77,0.59207
Feel-god,77,0.573475
Toller Film,77,0.5698949999999999
Aktion,78,0.7437
Genre: Thriller,78,0.7
Toller Film,78,0.6854333333333333
Original,78,0.6808333333333333
Großartiges Schauspielern,78,0.6677916666666666
tolles ende,78,0.6657583333333335
Mentor,78,0.6510083333333333
Verfolgungsjagd,78,0.6355333333333334
gutes Schauspielern,78,0.6268333333333331
Spannung,78,0.6255083333333334
Original,80,0.7848833333333334
lustiger Film,80,0.6870999999999999
Toller Film,80,0.6791166666666666
unterhaltsam,80,0.6783083333333334
tolles ende,80,0.6580666666666667
Verfolgungsjagd,80,0.6482833333333334
Dialog,80,0.6449041666666666
pg-13,80,0.6207
guter Soundtrack,80,0.6154374999999999
Storytelling,80,0.6083
Original,82,0.5805731481481481
tolles ende,82,0.5147101851851852
Toller Film,82,0.5126138888888889
Story,82,0.5049981481481483
Storytelling,82,0.4993990740740741
imdb top 250,82,0.4857907407407408
Mentor,82,0.4718416666666667
interessant,82,0.4546787037037037
gutes Schauspielern,82,0.4490870370370371
pg-13,82,0.4480166666666667
Genre: Drama,83,0.6
imdb top 250,83,0.5510249999999999
Original,83,0.5445562500000001
Großartiges Schauspielern,83,0.5365249999999999
Genre: Comedy,83,0.525
Storytelling,83,0.50855625
Drama,83,0.502675
Toller Film,83,0.5025562499999999
ausgezeichnetes Skript,83,0.4922937500000001
Oscar (beste Regie),83,0.48515625
Original,87,0.6216117647058824
Toller Film,87,0.5643823529411764
imdb top 250,87,0.5597029411764707
Story,87,0.5456117647058825
tolles ende,87,0.5427382352941177
Storytelling,87,0.5206647058823531
Dialog,87,0.5206323529411765
guter Soundtrack,87,0.4980294117647058
Mentor,87,0.4780014705882353
klug,87,0.4764676470588236
Original,88,0.5887215517241379
imdb top 250,88,0.535393103448276
Storytelling,88,0.5223517241379311
tolles ende,88,0.5179681034482758
Toller Film,88,0.5150206896551726
Großartiges Schauspielern,88,0.4841189655172415
interessant,88,0.4752663793103449
Story,88,0.4718913793103449
guter Soundtrack,88,0.4676956896551723
ausgezeichnetes Skript,88,0.4666784482758621
imdb top 250,89,0.6991214285714286
Original,89,0.6696428571428571
Großartiges Schauspielern,89,0.6629714285714285
Storytelling,89,0.6587107142857144
guter Soundtrack,89,0.6306285714285715
tolles ende,89,0.6269964285714286
Toller Film,89,0.6210928571428571
ausgezeichnetes Skript,89,0.6210892857142858
gutes Schauspielern,89,0.5970714285714285
interessant,89,0.5778535714285715
imdb top 250,91,0.7884071428571429
Original,91,0.7686107142857144
Großartiges Schauspielern,91,0.7466250000000001
Storytelling,91,0.7356071428571427
guter Soundtrack,91,0.7147071428571429
ausgezeichnetes Skript,91,0.7003857142857142
tolles ende,91,0.694857142857143
Oscar (beste Regie),91,0.6822357142857143
Drama,91,0.679125
gutes Schauspielern,91,0.6704214285714286
Original,93,0.70613125
Kindheit,93,0.6400437499999999
imdb top 250,93,0.6205000000000002
Story,93,0.59331875
Storytelling,93,0.5833812500000001
Schicksal,93,0.5752437499999999
Mentor,93,0.5726499999999999
Toller Film,93,0.5719625
lustiger Film,93,0.5622874999999999
tolles ende,93,0.54479375
Original,94,0.5233580000000001
Toller Film,94,0.4633560000000001
tolles ende,94,0.459621
Storytelling,94,0.4458000000000001
guter Soundtrack,94,0.443671
ausgezeichnetes Skript,94,0.443624
Mentor,94,0.4430120000000001
imdb top 250,94,0.4412319999999999
Großartiges Schauspielern,94,0.435857
Dialog,94,0.4137190000000001
gutes Schauspielern,96,0.48266875
Original,96,0.477540625
Toller Film,96,0.466734375
Oscar (beste Regie),96,0.4635406250000001
tolles ende,96,0.456565625
Großartiges Schauspielern,96,0.455709375
Story,96,0.45290625
imdb top 250,96,0.44985625
Drama,96,0.449115625
Mentor,96,0.425346875
Original,97,0.693375
imdb top 250,97,0.68409375
Genre: Comedy,97,0.625
Storytelling,97,0.61343125
Toller Film,97,0.600571875
tolles ende,97,0.586390625
Schicksal,97,0.5669406250000001
Story,97,0.5624281250000001
ausgezeichnetes Skript,97,0.5587875
guter Soundtrack,97,0.5575593750000001
Original,98,0.5988277777777778
Toller Film,98,0.5738
Story,98,0.5667305555555556
tolles ende,98,0.5352361111111111
imdb top 250,98,0.5319777777777778
lustiger Film,98,0.5121694444444445
Dialog,98,0.5119583333333334
unterhaltsam,98,0.4884166666666667
pg-13,98,0.4869083333333333
Mentor,98,0.4868416666666666
Original,99,0.6777749999999999
imdb top 250,99,0.6650750000000001
Storytelling,99,0.6111892857142858
Story,99,0.5981678571428571
Toller Film,99,0.5746464285714287
tolles ende,99,0.5374642857142857
guter Soundtrack,99,0.5363642857142857
Kindheit,99,0.5267357142857143
visuell,99,0.50505
optisch atemberaubend,99,0.5047178571428572
Original,100,0.5083616666666667
Toller Film,100,0.4591649999999999
tolles ende,100,0.4457766666666667
Storytelling,100,0.4399533333333334
Story,100,0.4316933333333334
imdb top 250,100,0.42544499999999996
Mentor,100,0.4177883333333334
gutes Schauspielern,100,0.405175
Dialog,100,0.40341
unterhaltsam,100,0.40240833333333337
Original,103,0.5494727272727272
Toller Film,103,0.4873772727272727
Story,103,0.4766863636363636
tolles ende,103,0.468734090909091
pg-13,103,0.4672795454545455
Storytelling,103,0.4572454545454545
Mentor,103,0.4413522727272727
imdb top 250,103,0.4287113636363637
lustiger Film,103,0.42642954545454537
Schicksal,103,0.420165909090909
Original,105,0.6254283333333335
imdb top 250,105,0.5627333333333333
Toller Film,105,0.5538683333333334
tolles ende,105,0.5413616666666667
Storytelling,105,0.5342899999999999
Großartiges Schauspielern,105,0.5180733333333334
interessant,105,0.5156516666666666
Dialog,105,0.5117966666666666
klug,105,0.5105433333333333
ausgezeichnetes Skript,105,0.49879
Original,106,0.6331
imdb top 250,106,0.5773250000000001
Storytelling,106,0.5627833333333333
guter Soundtrack,106,0.5559416666666668
tolles ende,106,0.5397305555555556
unterhaltsam,106,0.5326888888888888
Toller Film,106,0.5322083333333334
Story,106,0.5301888888888888
Mentor,106,0.5158333333333334
Schicksal,106,0.5148027777777778
Original,108,0.5537383928571429
imdb top 250,108,0.5033892857142857
Toller Film,108,0.4934830357142856
tolles ende,108,0.4730651785714287
Storytelling,108,0.4627348214285716
guter Soundtrack,108,0.4586776785714285
ausgezeichnetes Skript,108,0.4567303571428572
Großartiges Schauspielern,108,0.4564017857142857
Dialog,108,0.4524553571428571
interessant,108,0.44109107142857146
Original,110,0.5376604838709678
Toller Film,110,0.4845677419354838
tolles ende,110,0.4742975806451614
imdb top 250,110,0.4707120967741936
Mentor,110,0.4595153225806453
Story,110,0.4505758064516128
Storytelling,110,0.44944596774193546
Großartiges Schauspielern,110,0.4343741935483871
Dialog,110,0.4272919354838709
gutes Schauspielern,110,0.42331048387096776
Original,111,0.6752750000000001
imdb top 250,111,0.6266557692307692
Toller Film,111,0.6124769230769231
Storytelling,111,0.6056423076923078
tolles ende,111,0.5915711538461539
Großartiges Schauspielern,111,0.5903499999999999
guter Soundtrack,111,0.5853711538461539
ausgezeichnetes Skript,111,0.5852807692307692
interessant,111,0.5762576923076923
klug,111,0.5507538461538463
Original,112,0.47700000000000004
Story,112,0.404790625
Katastrophe,112,0.397325
Toller Film,112,0.383825
tolles ende,112,0.3813375
unterhaltsam,112,0.38131875
Aktion,112,0.36961875
lustiger Film,112,0.3645000000000001
Mentor,112,0.362490625
pg-13,112,0.359621875
Original,114,0.4538514705882353
Toller Film,114,0.3982794117647058
imdb top 250,114,0.3934602941176471
tolles ende,114,0.3902441176470588
Storytelling,114,0.3801389705882353
guter Soundtrack,114,0.36367132352941184
Dialog,114,0.3611639705882353
Story,114,0.35841691176470586
Mentor,114,0.35813676470588235
Großartiges Schauspielern,114,0.3432610294117647
Original,116,0.593815625
Toller Film,116,0.534746875
Dialog,116,0.50169375
tolles ende,116,0.4941687499999999
imdb top 250,116,0.492946875
guter Soundtrack,116,0.4892031250000001
klug,116,0.484696875
Story,116,0.48088125
lustiger Film,116,0.465734375
Mentor,116,0.453178125
Original,118,0.7487250000000001
Toller Film,118,0.7060599999999999
tolles ende,118,0.6912349999999999
pg-13,118,0.67667
Mentor,118,0.6709925
Story,118,0.6512125
interessant,118,0.6484975000000002
Storytelling,118,0.6398024999999999
Großartiges Schauspielern,118,0.6214425
heftig,118,0.6146499999999999
Original,119,0.6487428571428572
imdb top 250,119,0.5995642857142858
Storytelling,119,0.547525
Kindheit,119,0.5421250000000001
Story,119,0.5168142857142857
tolles ende,119,0.5052035714285714
Toller Film,119,0.5030035714285714
Schicksal,119,0.49385
optisch atemberaubend,119,0.4846464285714285
guter Soundtrack,119,0.4697857142857143
Original,120,0.6849571428571429
Toller Film,120,0.6719892857142857
unterhaltsam,120,0.5999035714285715
Story,120,0.5878392857142857
tolles ende,120,0.5805464285714286
imdb top 250,120,0.5699464285714286
lustiger Film,120,0.5674107142857143
Dialog,120,0.5645392857142858
Storytelling,120,0.552475
guter Soundtrack,120,0.5494571428571431
Original,121,0.6207611111111112
imdb top 250,121,0.611663888888889
Toller Film,121,0.5972666666666666
Storytelling,121,0.5692277777777779
tolles ende,121,0.546025
Story,121,0.5343194444444445
guter Soundtrack,121,0.5211638888888889
Großartiges Schauspielern,121,0.4959416666666666
interessant,121,0.4940027777777778
Dialog,121,0.4900305555555554
Original,123,0.5964043103448277
Toller Film,123,0.5119603448275862
imdb top 250,123,0.5107568965517242
tolles ende,123,0.5102525862068965
Storytelling,123,0.4970181034482758
Story,123,0.4872387931034484
Dialog,123,0.4800689655172413
Mentor,123,0.4698232758620689
guter Soundtrack,123,0.46655
interessant,123,0.4489706896551723
Original,124,0.6903775000000001
Toller Film,124,0.6245875
tolles ende,124,0.5838700000000001
Story,124,0.5813750000000001
imdb top 250,124,0.5804450000000001
Storytelling,124,0.5765100000000001
unterhaltsam,124,0.5630975
Dialog,124,0.5601175
guter Soundtrack,124,0.5409975
Mentor,124,0.539395
Original,125,0.57418125
imdb top 250,125,0.5583
Toller Film,125,0.514753125
Story,125,0.482759375
Storytelling,125,0.481134375
tolles ende,125,0.4811249999999999
guter Soundtrack,125,0.47679375
Oscar (beste Regie),125,0.444321875
Dialog,125,0.436759375
interessant,125,0.431584375
Original,126,0.6384011363636364
tolles ende,126,0.5572022727272727
Toller Film,126,0.5568181818181818
Großartiges Schauspielern,126,0.5493681818181818
Storytelling,126,0.5490238636363637
imdb top 250,126,0.5390181818181821
Mentor,126,0.5254511363636363
Story,126,0.5118090909090909
ausgezeichnetes Skript,126,0.5070034090909091
gutes Schauspielern,126,0.5043909090909091
imdb top 250,127,0.6966704545454546
Original,127,0.6892386363636362
Großartiges Schauspielern,127,0.6111113636363635
Toller Film,127,0.6096431818181818
ausgezeichnetes Skript,127,0.6067477272727273
Storytelling,127,0.6033386363636364
tolles ende,127,0.5949363636363636
Oscar (beste Regie),127,0.5909363636363636
guter Soundtrack,127,0.5738204545454546
gutes Schauspielern,127,0.5563954545454546
Original,128,0.7164727272727273
Toller Film,128,0.6453795454545456
tolles ende,128,0.6240386363636363
Story,128,0.6148977272727273
Dialog,128,0.5953522727272728
imdb top 250,128,0.5879954545454547
Mentor,128,0.5863022727272728
lustiger Film,128,0.5775545454545454
Schicksal,128,0.5755113636363636
Storytelling,128,0.5689090909090908
Original,130,0.35481250000000003
Toller Film,130,0.33915625
Dialog,130,0.333559375
tolles ende,130,0.328834375
Spannung,130,0.30721875
Aktion,130,0.30625
lustiger Film,130,0.30078125
interessant,130,0.290540625
unterhaltsam,130,0.29031875
Mentor,130,0.28911250000000005
Original,132,0.7010906249999999
imdb top 250,132,0.6139500000000001
Story,132,0.6063375
Toller Film,132,0.6009437500000001
Kindheit,132,0.5665968749999999
tolles ende,132,0.5652906249999999
guter Soundtrack,132,0.56395
Storytelling,132,0.559296875
Mentor,132,0.5572874999999999
Schicksal,132,0.54925
Original,133,0.715603125
Genre: Comedy,133,0.6875
imdb top 250,133,0.6534625000000001
guter Soundtrack,133,0.6514843750000001
Storytelling,133,0.6347562500000001
Toller Film,133,0.626184375
ausgezeichnetes Skript,133,0.59201875
klug,133,0.5879531250000001
tolles ende,133,0.5873875000000001
unterhaltsam,133,0.5762437499999999
Original,134,0.542255
imdb top 250,134,0.473505
Toller Film,134,0.46821949999999996
tolles ende,134,0.4644835
Storytelling,134,0.4433589999999999
Großartiges Schauspielern,134,0.4409835000000001
Dialog,134,0.4325285000000001
guter Soundtrack,134,0.4222624999999999
Mentor,134,0.42081800000000014
ausgezeichnetes Skript,134,0.4195295
Original,135,0.5036734693877551
tolles ende,135,0.4388693877551021
imdb top 250,135,0.4315321428571429
Toller Film,135,0.4308066326530611
Storytelling,135,0.41761632653061226
Großartiges Schauspielern,135,0.4102341836734694
Story,135,0.4033474489795919
Mentor,135,0.4011423469387755
Dialog,135,0.39682959183673455
interessant,135,0.3936510204081632
Großartiges Schauspielern,136,0.7636607142857142
imdb top 250,136,0.7381178571428572
ausgezeichnetes Skript,136,0.7364857142857143
Original,136,0.7273964285714286
Genre: Drama,136,0.7
Storytelling,136,0.6967107142857143
tolles ende,136,0.6927571428571427
Toller Film,136,0.6910321428571428
Oscar (beste Regie),136,0.6877928571428571
guter Soundtrack,136,0.6844892857142857
Original,137,0.670528125
Story,137,0.62350625
Toller Film,137,0.60979375
Kindheit,137,0.568525
Mentor,137,0.56700625
pg-13,137,0.5666281249999999
tolles ende,137,0.5509312499999999
Storytelling,137,0.5427500000000001
imdb top 250,137,0.5363249999999999
Schicksal,137,0.5280374999999999
imdb top 250,138,0.5393343749999999
Original,138,0.518984375
Storytelling,138,0.513359375
Story,138,0.4789375000000001
optisch atemberaubend,138,0.4701531250000001
tolles ende,138,0.467125
Toller Film,138,0.44943125
Mentor,138,0.4489156249999999
klug,138,0.44273125
interessant,138,0.437121875
Original,141,0.707990625
imdb top 250,141,0.6793968749999999
Großartiges Schauspielern,141,0.6775249999999999
Storytelling,141,0.6762781250000001
tolles ende,141,0.64880625
guter Soundtrack,141,0.6461375
Toller Film,141,0.6343937499999999
ausgezeichnetes Skript,141,0.628203125
gutes Schauspielern,141,0.628021875
interessant,141,0.6064875000000001
Original,142,0.6090734375
imdb top 250,142,0.60889375
Storytelling,142,0.57039375
guter Soundtrack,142,0.5626515625
tolles ende,142,0.5603171874999999
Großartiges Schauspielern,142,0.5592
ausgezeichnetes Skript,142,0.5558296875
Toller Film,142,0.5530203124999999
Dialog,142,0.5226249999999999
interessant,142,0.5167062499999999
Original,144,0.72764375
guter Soundtrack,144,0.656340625
Toller Film,144,0.652203125
imdb top 250,144,0.6473375000000001
Storytelling,144,0.6372281249999999
tolles ende,144,0.618684375
Dialog,144,0.577184375
Mentor,144,0.571771875
Story,144,0.55754375
interessant,144,0.5573593749999999
Original,146,0.6485023437499999
imdb top 250,146,0.6091500000000001
tolles ende,146,0.57522890625
Toller Film,146,0.5727109374999999
Storytelling,146,0.5594249999999998
Großartiges Schauspielern,146,0.54209453125
guter Soundtrack,146,0.5220179687500001
interessant,146,0.5211867187499999
Story,146,0.51283046875
Oscar (beste Regie),146,0.51267890625
Original,148,0.63918125
Storytelling,148,0.568921875
imdb top 250,148,0.5456999999999999
tolles ende,148,0.538334375
Story,148,0.5318625
Toller Film,148,0.52660625
optisch atemberaubend,148,0.5194749999999999
Schicksal,148,0.507765625
guter Soundtrack,148,0.50246875
interessant,148,0.4951906250000001
Original,149,0.5673777777777779
Toller Film,149,0.5211222222222223
Story,149,0.5070055555555556
pg-13,149,0.5051777777777777
unterhaltsam,149,0.5030055555555555
lustiger Film,149,0.4999527777777778
Mentor,149,0.4962333333333332
Schicksal,149,0.4675555555555556
tolles ende,149,0.4660888888888889
Kindheit,149,0.4363944444444445
Original,151,0.748015
imdb top 250,151,0.6831833333333334
Storytelling,151,0.6790133333333334
guter Soundtrack,151,0.6591616666666666
tolles ende,151,0.654155
Toller Film,151,0.6348650000000001
interessant,151,0.62947
Großartiges Schauspielern,151,0.6274966666666668
ausgezeichnetes Skript,151,0.6096000000000001
Mentor,151,0.5860116666666667
Original,152,0.6406027777777776
Toller Film,152,0.586325
Story,152,0.5850583333333332
tolles ende,152,0.5846027777777777
Storytelling,152,0.575088888888889
imdb top 250,152,0.5532
Mentor,152,0.5517805555555555
gutes Schauspielern,152,0.5490527777777777
unterhaltsam,152,0.5404388888888888
pg-13,152,0.5353472222222222
Original,153,0.6172571428571428
Toller Film,153,0.5724678571428571
unterhaltsam,153,0.5701428571428572
Story,153,0.5624607142857143
pg-13,153,0.5572249999999999
lustiger Film,153,0.5540714285714285
Mentor,153,0.55125
Verfolgungsjagd,153,0.5354214285714286
Aktion,153,0.5320642857142858
Schicksal,153,0.5253821428571428
Original,154,0.6121062500000001
pg-13,154,0.5538187499999999
lustiger Film,154,0.552925
Toller Film,154,0.54854375
Verfolgungsjagd,154,0.5215562499999999
tolles ende,154,0.5184624999999999
unterhaltsam,154,0.48855625
Mentor,154,0.4844625
interessant,154,0.46595
klug,154,0.46504375
Original,155,0.7234812500000001
Toller Film,155,0.6722125
Story,155,0.67158125
Großartiges Schauspielern,155,0.6676937500000001
tolles ende,155,0.6588
Mentor,155,0.6569375
heftig,155,0.6466156250000001
imdb top 250,155,0.6364593749999999
Aktion,155,0.62738125
Drama,155,0.62675
imdb top 250,156,0.891595
Original,156,0.8272625000000001
Storytelling,156,0.7859675000000002
Toller Film,156,0.779375
tolles ende,156,0.7365725000000001
ausgezeichnetes Skript,156,0.7230424999999999
guter Soundtrack,156,0.7187874999999998
Großartiges Schauspielern,156,0.7167325
Oscar (beste Regie),156,0.7163975
interessant,156,0.6914024999999999
Aktion,158,0.6063925
Original,158,0.5855124999999999
Story,158,0.5823725000000001
Verfolgungsjagd,158,0.5557000000000001
unterhaltsam,158,0.5525575
pg-13,158,0.5494825000000001
lustiger Film,158,0.5401874999999999
Toller Film,158,0.5106675
Genre: Adventure,158,0.5
tolles ende,158,0.4960299999999999
Original,159,0.5441914999999999
Toller Film,159,0.4672385
tolles ende,159,0.464704
imdb top 250,159,0.46219449999999995
Storytelling,159,0.4433449999999999
Dialog,159,0.4290580000000001
Großartiges Schauspielern,159,0.42640649999999997
guter Soundtrack,159,0.4240325
Story,159,0.4234915
Mentor,159,0.4223515000000001
Original,160,0.617528125
Aktion,160,0.59956875
pg-13,160,0.59241875
Mentor,160,0.5855874999999999
Schicksal,160,0.58043125
gutes Schauspielern,160,0.572246875
Katastrophe,160,0.57106875
Verfolgungsjagd,160,0.5643499999999999
Story,160,0.5632343750000001
unterhaltsam,160,0.562575
Original,161,0.7684767857142857
Toller Film,161,0.7175553571428572
Story,161,0.7041928571428571
imdb top 250,161,0.6782910714285715
tolles ende,161,0.6724339285714286
Storytelling,161,0.672432142857143
Mentor,161,0.6415571428571429
Oscar (beste Regie),161,0.6032964285714286
ausgezeichnetes Skript,161,0.5934517857142857
Dialog,161,0.5890410714285714
Original,162,0.596503125
Toller Film,162,0.5381916666666665
tolles ende,162,0.524915625
Story,162,0.5099333333333333
Verfolgungsjagd,162,0.4882895833333333
Mentor,162,0.485125
imdb top 250,162,0.4819260416666668
Dialog,162,0.4796822916666668
lustiger Film,162,0.4771875
pg-13,162,0.4704958333333335
Original,163,0.7225475
Toller Film,163,0.66743
Story,163,0.6202099999999999
tolles ende,163,0.6137199999999999
pg-13,163,0.6029074999999999
Mentor,163,0.5946925000000001
Storytelling,163,0.580675
imdb top 250,163,0.5789300000000001
klug,163,0.57181
lustiger Film,163,0.55479
Original,164,0.5922263157894738
imdb top 250,164,0.5588342105263158
Toller Film,164,0.5410723684210527
Storytelling,164,0.5404184210526317
tolles ende,164,0.5214184210526316
guter Soundtrack,164,0.5009052631578947
Story,164,0.498246052631579
interessant,164,0.4823486842105263
ausgezeichnetes Skript,164,0.4772631578947369
Mentor,164,0.470771052631579
Original,166,0.6654944444444445
imdb top 250,166,0.6409444444444444
Storytelling,166,0.6298833333333334
guter Soundtrack,166,0.6060111111111112
tolles ende,166,0.5730555555555557
interessant,166,0.5687
Toller Film,166,0.5623166666666666
ausgezeichnetes Skript,166,0.5537388888888889
Großartiges Schauspielern,166,0.5505611111111112
klug,166,0.5488777777777778
Original,167,0.8687156250000001
heftig,167,0.8450750000000001
Gewalt,167,0.8432499999999999
guter Soundtrack,167,0.83838125
Brutalität,167,0.830846875
imdb top 250,167,0.821340625
Storytelling,167,0.800053125
sozialer Kommentar,167,0.760075
Kultklassiker,167,0.7514749999999999
Dialog,167,0.746665625
Original,169,0.6060749999999999
Toller Film,169,0.5655472222222222
Aktion,169,0.5618666666666666
tolles ende,169,0.5606944444444444
Dialog,169,0.5258861111111112
imdb top 250,169,0.5221055555555555
Storytelling,169,0.5120722222222223
Verfolgungsjagd,169,0.5098833333333334
Mentor,169,0.5079361111111111
heftig,169,0.4914333333333333
Original,170,0.6267400000000001
imdb top 250,170,0.6144933333333333
Toller Film,170,0.5625683333333333
Storytelling,170,0.554825
tolles ende,170,0.54577
Großartiges Schauspielern,170,0.5201766666666667
ausgezeichnetes Skript,170,0.5148266666666667
guter Soundtrack,170,0.5130216666666667
interessant,170,0.4973566666666666
klug,170,0.4947233333333333
Original,171,0.5990438775510204
Toller Film,171,0.5176056122448979
imdb top 250,171,0.5135770408163265
tolles ende,171,0.5122632653061224
Storytelling,171,0.4887459183673469
Großartiges Schauspielern,171,0.4797897959183673
Dialog,171,0.4788035714285715
guter Soundtrack,171,0.4709183673469386
Mentor,171,0.4631505102040817
Story,171,0.4615188775510203
imdb top 250,172,0.93484375
Großartiges Schauspielern,172,0.86723125
Original,172,0.84155
heftig,172,0.8295125000000001
Toller Film,172,0.8194874999999999
Dialog,172,0.8183875
guter Soundtrack,172,0.7934625000000001
tolles ende,172,0.7919375
Gewalt,172,0.766975
ausgezeichnetes Skript,172,0.7618562499999999
Original,179,0.5681666666666666
Toller Film,179,0.480525
tolles ende,179,0.4790722222222222
Verfolgungsjagd,179,0.4552194444444445
Dialog,179,0.452688888888889
Großartiges Schauspielern,179,0.4526555555555555
Mentor,179,0.4491694444444445
Story,179,0.4387805555555556
imdb top 250,179,0.4304777777777778
heftig,179,0.42528333333333335
Original,180,0.7219843750000001
Toller Film,180,0.6571281249999998
tolles ende,180,0.651653125
Aktion,180,0.6463125000000001
Mentor,180,0.628590625
Storytelling,180,0.62094375
guter Soundtrack,180,0.6140531250000001
Großartiges Schauspielern,180,0.606278125
unterhaltsam,180,0.605221875
gutes Schauspielern,180,0.6017374999999999
Toller Film,181,0.7055899999999999
Original,181,0.7027600000000002
imdb top 250,181,0.6802075
Großartiges Schauspielern,181,0.6763525000000001
tolles ende,181,0.6440325
ausgezeichnetes Skript,181,0.6275550000000001
guter Soundtrack,181,0.61534
Storytelling,181,0.6109875
gutes Schauspielern,181,0.5941875
Dialog,181,0.5925425000000001
Original,183,0.5537305555555555
Toller Film,183,0.5143222222222222
Story,183,0.5042055555555557
Mentor,183,0.4851555555555556
imdb top 250,183,0.4846333333333333
pg-13,183,0.47255
Storytelling,183,0.46945
tolles ende,183,0.4680277777777778
unterhaltsam,183,0.45215
guter Soundtrack,183,0.4501305555555556
Original,185,0.257961
Toller Film,185,0.223616
imdb top 250,185,0.21793000000000004
Story,185,0.21211999999999995
tolles ende,185,0.20658699999999994
Storytelling,185,0.20101
Dialog,185,0.196479
klug,185,0.19197900000000004
Mentor,185,0.188647
guter Soundtrack,185,0.18364399999999992
imdb top 250,186,0.7497800000000001
Original,186,0.7490399999999999
Storytelling,186,0.7122200000000001
Story,186,0.7025499999999999
Schicksal,186,0.6965899999999999
Kindheit,186,0.68211
optisch atemberaubend,186,0.6670999999999999
Feel-god,186,0.65396
Mentor,186,0.6461100000000001
Toller Film,186,0.6418000000000001
Original,187,0.8339399999999999
imdb top 250,187,0.793265
Toller Film,187,0.7573674999999999
guter Soundtrack,187,0.7421975000000001
Storytelling,187,0.7315325000000001
tolles ende,187,0.7223575000000001
Großartiges Schauspielern,187,0.7140675
ausgezeichnetes Skript,187,0.6967924999999999
interessant,187,0.69286
Mentor,187,0.6662125000000001
Original,188,0.5134568181818182
Toller Film,188,0.4970431818181818
Story,188,0.4614681818181818
imdb top 250,188,0.4572568181818181
tolles ende,188,0.4262340909090909
klug,188,0.41745681818181823
Storytelling,188,0.4117568181818181
lustiger Film,188,0.4049590909090909
Dialog,188,0.4018272727272728
Mentor,188,0.3876909090909091
Original,189,0.6758225
Toller Film,189,0.6083974999999999
Story,189,0.5658875
tolles ende,189,0.5616524999999999
guter Soundtrack,189,0.5576099999999998
Mentor,189,0.55494
Storytelling,189,0.544195
pg-13,189,0.5397649999999999
imdb top 250,189,0.5295200000000001
unterhaltsam,189,0.524875
Genre: Comedy,190,0.7333333333333333
imdb top 250,190,0.7064
Original,190,0.6685833333333332
Toller Film,190,0.6512
Storytelling,190,0.6406833333333334
guter Soundtrack,190,0.6353166666666666
ausgezeichnetes Skript,190,0.5881833333333334
unterhaltsam,190,0.5682166666666666
tolles ende,190,0.5650833333333334
Großartiges Schauspielern,190,0.5523500000000001
Original,194,0.6590361111111112
tolles ende,194,0.6297944444444443
Großartiges Schauspielern,194,0.6175527777777778
Toller Film,194,0.6174611111111109
imdb top 250,194,0.6124666666666666
ausgezeichnetes Skript,194,0.6005138888888889
Oscar (beste Regie),194,0.587875
Mentor,194,0.5758444444444446
interessant,194,0.5711777777777778
Storytelling,194,0.5695944444444444
Original,196,0.5814765000000002
imdb top 250,196,0.5109019999999999
Toller Film,196,0.5012335
tolles ende,196,0.5008745000000001
Großartiges Schauspielern,196,0.4749385000000001
Storytelling,196,0.473272
Dialog,196,0.46613000000000004
guter Soundtrack,196,0.4573744999999999
ausgezeichnetes Skript,196,0.4567920000000001
Mentor,196,0.44904750000000004
Original,197,0.5739799999999999
Mentor,197,0.48393
klug,197,0.4812150000000001
Toller Film,197,0.465955
Story,197,0.462035
lustiger Film,197,0.4613600000000001
Kindheit,197,0.4603
tolles ende,197,0.4557599999999999
Schicksal,197,0.4556250000000001
Storytelling,197,0.4542800000000001
Original,198,0.6065520833333333
Story,198,0.5344270833333333
imdb top 250,198,0.5311375
Storytelling,198,0.5168166666666667
Toller Film,198,0.4983729166666667
tolles ende,198,0.4850958333333333
Schicksal,198,0.47529375
Kindheit,198,0.4681354166666667
optisch atemberaubend,198,0.4651708333333334
lustiger Film,198,0.46116875
Original,199,0.6778200000000001
Toller Film,199,0.5705100000000001
tolles ende,199,0.563077
imdb top 250,199,0.5614549999999999
Storytelling,199,0.5582280000000001
guter Soundtrack,199,0.550981
Dialog,199,0.545451
Großartiges Schauspielern,199,0.5170469999999999
Story,199,0.512443
Mentor,199,0.5091199999999999
Original,202,0.6937541666666667
imdb top 250,202,0.6201791666666667
Toller Film,202,0.6158944444444444
tolles ende,202,0.5894027777777777
Storytelling,202,0.5862180555555556
Story,202,0.5678194444444443
Mentor,202,0.5654666666666668
ausgezeichnetes Skript,202,0.5503402777777777
klug,202,0.5459944444444444
interessant,202,0.544861111111111
Original,203,0.7001499999999999
gutes Schauspielern,203,0.6496624999999999
tolles ende,203,0.6420687500000001
Story,203,0.623815625
guter Soundtrack,203,0.6183562499999999
Toller Film,203,0.614221875
pg-13,203,0.6114062500000002
Storytelling,203,0.6089625
unterhaltsam,203,0.6064187499999999
Dialog,203,0.5894781250000001
Original,204,0.42010625
Toller Film,204,0.3656906249999999
tolles ende,204,0.3654520833333333
imdb top 250,204,0.36420260416666667
Storytelling,204,0.3500822916666667
Großartiges Schauspielern,204,0.3455765625000001
Mentor,204,0.33839479166666664
Story,204,0.33525468750000004
Dialog,204,0.33368437500000003
ausgezeichnetes Skript,204,0.3319442708333334
Original,205,0.6656772727272727
imdb top 250,205,0.5905772727272727
tolles ende,205,0.5896727272727273
Toller Film,205,0.5813363636363637
Storytelling,205,0.5811977272727272
guter Soundtrack,205,0.5747409090909091
Großartiges Schauspielern,205,0.5721113636363636
ausgezeichnetes Skript,205,0.5713795454545454
gutes Schauspielern,205,0.5536477272727273
Oscar (beste Regie),205,0.5471045454545455
Original,206,0.5904999999999999
Toller Film,206,0.5164222222222222
Storytelling,206,0.5134722222222223
tolles ende,206,0.4970583333333333
Story,206,0.4959166666666667
gutes Schauspielern,206,0.4890527777777778
imdb top 250,206,0.4773666666666666
guter Soundtrack,206,0.4718055555555556
unterhaltsam,206,0.4640833333333333
Großartiges Schauspielern,206,0.44973888888888897
imdb top 250,207,0.6896800000000001
Großartiges Schauspielern,207,0.6876099999999999
Genre: Drama,207,0.6799999999999999
Original,207,0.6792050000000001
Oscar (beste Regie),207,0.6674100000000001
Storytelling,207,0.6626749999999999
tolles ende,207,0.6497600000000001
ausgezeichnetes Skript,207,0.648595
Drama,207,0.63789
interessant,207,0.6209649999999999
Original,208,0.693675
Storytelling,208,0.623015625
imdb top 250,208,0.58524375
tolles ende,208,0.5847031250000001
interessant,208,0.56581875
Toller Film,208,0.5656468749999999
guter Soundtrack,208,0.5627625
Story,208,0.559153125
sozialer Kommentar,208,0.527434375
klug,208,0.521678125
Original,211,0.6375093749999999
Toller Film,211,0.5707437499999999
tolles ende,211,0.5607
Storytelling,211,0.55655625
interessant,211,0.53168125
klug,211,0.518334375
imdb top 250,211,0.51440625
Großartiges Schauspielern,211,0.508434375
guter Soundtrack,211,0.50774375
unterhaltsam,211,0.500809375
Original,212,0.39309600000000017
Toller Film,212,0.339387
imdb top 250,212,0.3320395000000001
tolles ende,212,0.3315070000000001
Story,212,0.3155269999999999
Storytelling,212,0.3134470000000001
Mentor,212,0.3106239999999999
Dialog,212,0.3100060000000001
guter Soundtrack,212,0.2903569999999999
Großartiges Schauspielern,212,0.2898359999999999
Original,213,0.7390250000000002
Toller Film,213,0.6992175000000002
guter Soundtrack,213,0.654415
Storytelling,213,0.6530175
tolles ende,213,0.65168
Großartiges Schauspielern,213,0.6507525000000001
imdb top 250,213,0.6477525
ausgezeichnetes Skript,213,0.63717
interessant,213,0.6153574999999999
Mentor,213,0.591955
Original,215,0.69054375
Story,215,0.61164375
Storytelling,215,0.591746875
Toller Film,215,0.585209375
imdb top 250,215,0.578809375
tolles ende,215,0.56269375
Kindheit,215,0.56225
Mentor,215,0.5448875
Schicksal,215,0.54085
guter Soundtrack,215,0.5137312500000001
Original,216,0.4828803571428571
Toller Film,216,0.4143636904761904
Story,216,0.4026898809523809
tolles ende,216,0.4024172619047618
imdb top 250,216,0.39824880952380937
Storytelling,216,0.3877869047619047
Mentor,216,0.3751738095238095
Dialog,216,0.3596369047619047
Schicksal,216,0.3532065476190475
klug,216,0.34706249999999994
Original,217,0.5845
imdb top 250,217,0.5625363636363636
Großartiges Schauspielern,217,0.5213386363636363
tolles ende,217,0.5195749999999999
Storytelling,217,0.5156204545454546
ausgezeichnetes Skript,217,0.5135681818181818
Toller Film,217,0.5107
guter Soundtrack,217,0.5054545454545454
interessant,217,0.4969250000000001
Oscar (beste Regie),217,0.4946227272727272
Original,218,0.5240625000000001
Story,218,0.4646875
Toller Film,218,0.4623562499999999
Storytelling,218,0.4507281249999999
Mentor,218,0.449634375
pg-13,218,0.449321875
tolles ende,218,0.44420625
imdb top 250,218,0.4394374999999999
guter Soundtrack,218,0.435775
gutes Schauspielern,218,0.43505625
Original,220,0.6394326923076924
imdb top 250,220,0.6030750000000001
tolles ende,220,0.5869038461538463
Großartiges Schauspielern,220,0.5855442307692308
Toller Film,220,0.570276923076923
Storytelling,220,0.56735
Mentor,220,0.5625211538461539
interessant,220,0.5576634615384616
Oscar (beste Regie),220,0.5532634615384615
ausgezeichnetes Skript,220,0.5489884615384616
Original,221,0.5257249999999999
Toller Film,221,0.4898071428571428
pg-13,221,0.4539928571428571
Mentor,221,0.4539821428571429
tolles ende,221,0.4502535714285715
ausgezeichnetes Skript,221,0.4461035714285715
Story,221,0.4380678571428572
Großartiges Schauspielern,221,0.4343000000000001
lustiger Film,221,0.4227571428571428
gutes Schauspielern,221,0.4214642857142857
Original,222,0.6233859374999999
imdb top 250,222,0.6062531250000002
Großartiges Schauspielern,222,0.5795437500000001
Storytelling,222,0.5744656250000001
tolles ende,222,0.562725
guter Soundtrack,222,0.5437265625000001
ausgezeichnetes Skript,222,0.5400499999999999
Toller Film,222,0.53565625
Dialog,222,0.5328859375
interessant,222,0.5212109375
imdb top 250,223,0.7274166666666666
Original,223,0.7241333333333334
Storytelling,223,0.6717250000000001
guter Soundtrack,223,0.6398875
Toller Film,223,0.6349541666666667
Großartiges Schauspielern,223,0.6163270833333333
tolles ende,223,0.6145854166666667
ausgezeichnetes Skript,223,0.6127125
interessant,223,0.6084624999999999
sozialer Kommentar,223,0.5771562499999999
Original,224,0.5187494897959184
Toller Film,224,0.4502846938775511
tolles ende,224,0.44244081632653065
imdb top 250,224,0.4328540816326531
Storytelling,224,0.4136729591836735
Dialog,224,0.4113535714285715
Mentor,224,0.4101489795918368
Großartiges Schauspielern,224,0.4058566326530613
Story,224,0.4048107142857143
guter Soundtrack,224,0.3909030612244898
Original,225,0.7718928571428572
Storytelling,225,0.7178107142857144
tolles ende,225,0.7061767857142857
imdb top 250,225,0.7061678571428571
guter Soundtrack,225,0.6737232142857142
gutes Schauspielern,225,0.665025
ausgezeichnetes Skript,225,0.6598142857142857
Toller Film,225,0.6577767857142858
Großartiges Schauspielern,225,0.6573464285714288
Dialog,225,0.6447910714285714
Original,226,0.6128875
imdb top 250,226,0.5772285714285714
Storytelling,226,0.5468053571428572
Toller Film,226,0.5463696428571428
guter Soundtrack,226,0.5414535714285715
tolles ende,226,0.5300625000000001
ausgezeichnetes Skript,226,0.5080017857142856
klug,226,0.5016017857142858
interessant,226,0.4978857142857143
Dialog,226,0.4910964285714286
Original,228,0.5731928571428571
lustiger Film,228,0.5550499999999999
Verfolgungsjagd,228,0.5364642857142856
Story,228,0.5290821428571428
Genre: Adventure,228,0.5142857142857143
Schicksal,228,0.5069250000000001
pg-13,228,0.5042214285714286
Mentor,228,0.5024607142857143
Kindheit,228,0.4810250000000001
Toller Film,228,0.4809857142857143
Original,229,0.6499809523809524
Storytelling,229,0.5503702380952379
tolles ende,229,0.5451714285714286
Toller Film,229,0.5370642857142857
imdb top 250,229,0.5361285714285715
Story,229,0.5214452380952381
guter Soundtrack,229,0.4986047619047619
interessant,229,0.49627738095238105
Dialog,229,0.4947726190476189
klug,229,0.4874059523809523
Original,230,0.6761571428571429
Toller Film,230,0.6180785714285714
Story,230,0.5837321428571429
guter Soundtrack,230,0.5820321428571428
Genre: Comedy,230,0.5714285714285714
Mentor,230,0.5675642857142857
pg-13,230,0.5554000000000001
tolles ende,230,0.5527142857142857
Storytelling,230,0.5507785714285715
imdb top 250,230,0.5458142857142858
Original,231,0.6611485294117647
Storytelling,231,0.5545544117647061
tolles ende,231,0.5462235294117648
Toller Film,231,0.5242455882352941
guter Soundtrack,231,0.5171985294117647
imdb top 250,231,0.5114985294117648
interessant,231,0.5108382352941176
Dialog,231,0.504189705882353
Story,231,0.5038867647058825
Großartiges Schauspielern,231,0.5005573529411766
imdb top 250,234,0.6615130434782609
Original,234,0.6452336956521739
Großartiges Schauspielern,234,0.6056206521739129
Toller Film,234,0.5791554347826088
tolles ende,234,0.5772902173913044
Storytelling,234,0.5759565217391305
guter Soundtrack,234,0.5558760869565218
Oscar (beste Regie),234,0.5532663043478261
interessant,234,0.5440065217391303
ausgezeichnetes Skript,234,0.5437423913043478
Original,235,0.7853722222222224
Storytelling,235,0.6813444444444444
tolles ende,235,0.67965
Toller Film,235,0.6544777777777778
Story,235,0.6411666666666667
imdb top 250,235,0.6358833333333332
Dialog,235,0.62755
interessant,235,0.62285
Spannung,235,0.6212055555555556
Großartiges Schauspielern,235,0.6089333333333334
Original,236,0.6547961538461538
Story,236,0.6012211538461539
Toller Film,236,0.5971596153846155
lustiger Film,236,0.5547134615384616
tolles ende,236,0.5440269230769231
imdb top 250,236,0.5371403846153847
Mentor,236,0.5183807692307694
Genre: Comedy,236,0.5153846153846154
unterhaltsam,236,0.515125
pg-13,236,0.5139903846153846
Original,237,0.4882416666666667
Aktion,237,0.4471541666666667
tolles ende,237,0.4446
Storytelling,237,0.44040625
Dialog,237,0.4398395833333334
Toller Film,237,0.434275
Genre: Thriller,237,0.4166666666666667
imdb top 250,237,0.4155833333333333
guter Soundtrack,237,0.4082604166666667
gutes Schauspielern,237,0.40624375
Original,238,0.5969869318181817
Toller Film,238,0.5067102272727275
tolles ende,238,0.5065795454545456
imdb top 250,238,0.4911187500000001
Storytelling,238,0.4779636363636365
Dialog,238,0.4726443181818182
Großartiges Schauspielern,238,0.4636909090909089
Story,238,0.4634119318181818
Mentor,238,0.459490909090909
guter Soundtrack,238,0.4507238636363636
Genre: Adventure,240,1.0
Story,240,0.8723214285714287
Original,240,0.8411785714285716
Toller Film,240,0.8121428571428572
lustiger Film,240,0.7452499999999999
unterhaltsam,240,0.7198214285714285
imdb top 250,240,0.7161785714285714
Verfolgungsjagd,240,0.6934285714285713
Kindheit,240,0.6870357142857143
Dialog,240,0.6866428571428571
Original,241,0.5275
Story,241,0.4716937499999999
lustiger Film,241,0.468965625
Genre: Adventure,241,0.4625
unterhaltsam,241,0.4556156250000001
Verfolgungsjagd,241,0.44613125
Aktion,241,0.4434250000000001
Toller Film,241,0.4374312500000001
Dialog,241,0.428859375
Storytelling,241,0.428853125
Original,243,0.673971875
imdb top 250,243,0.657071875
Storytelling,243,0.643275
guter Soundtrack,243,0.634146875
ausgezeichnetes Skript,243,0.6153812500000001
Großartiges Schauspielern,243,0.6125156250000001
tolles ende,243,0.6098375
Toller Film,243,0.6030187499999999
interessant,243,0.571225
sozialer Kommentar,243,0.5627718749999999
Story,244,0.4639156250000001
Original,244,0.45279375
pg-13,244,0.4376625000000001
Toller Film,244,0.417771875
Mentor,244,0.4097250000000001
tolles ende,244,0.40955
Schicksal,244,0.409084375
Aktion,244,0.408325
gutes Schauspielern,244,0.4073124999999999
Katastrophe,244,0.3931125
Original,245,0.56497
guter Soundtrack,245,0.559095
Kultklassiker,245,0.5118699999999999
Storytelling,245,0.4945850000000001
Dialog,245,0.491805
imdb top 250,245,0.4833499999999999
Gewalt,245,0.47758999999999996
sozialer Kommentar,245,0.47478000000000004
Genre: Comedy,245,0.46
heftig,245,0.45957
Original,246,0.7101416666666667
Toller Film,246,0.6388541666666666
pg-13,246,0.6357270833333334
Story,246,0.6355145833333332
Mentor,246,0.6151395833333333
tolles ende,246,0.6109229166666668
unterhaltsam,246,0.5993770833333333
Storytelling,246,0.59044375
Aktion,246,0.5878208333333333
lustiger Film,246,0.5796875
Original,248,0.68173125
unterhaltsam,248,0.6462375
Toller Film,248,0.613709375
Story,248,0.611628125
lustiger Film,248,0.5958749999999999
imdb top 250,248,0.5810875
Storytelling,248,0.573721875
tolles ende,248,0.56694375
guter Soundtrack,248,0.560134375
pg-13,248,0.5529562499999999
Genre: Fantasy,249,0.9
Genre: Adventure,249,0.9
Genre: Animation,249,0.9
Genre: Children,249,0.9
Genre: Comedy,249,0.9
imdb top 250,249,0.8478
Kindheit,249,0.833625
Toller Film,249,0.8286749999999999
Story,249,0.8167500000000001
Licht,249,0.8099999999999999
Original,251,0.7843318181818182
imdb top 250,251,0.747109090909091
Toller Film,251,0.7154818181818182
Storytelling,251,0.7101318181818181
tolles ende,251,0.6798772727272728
Story,251,0.6765545454545454
Mentor,251,0.6569318181818182
guter Soundtrack,251,0.6556772727272727
ausgezeichnetes Skript,251,0.6455454545454544
Großartiges Schauspielern,251,0.6378318181818181
Original,252,0.5735510416666667
Toller Film,252,0.4944468750000001
Storytelling,252,0.4860989583333333
imdb top 250,252,0.48004375
tolles ende,252,0.4787302083333334
guter Soundtrack,252,0.4690947916666666
Dialog,252,0.46706875
Story,252,0.4458062500000001
Mentor,252,0.4375739583333333
klug,252,0.4354239583333334
imdb top 250,253,0.83041875
Original,253,0.8147
Storytelling,253,0.7154906249999999
Großartiges Schauspielern,253,0.7076062500000001
guter Soundtrack,253,0.6816375000000001
ausgezeichnetes Skript,253,0.6758375
tolles ende,253,0.6743750000000001
Dialog,253,0.6616187499999999
Toller Film,253,0.64220625
erzählt,253,0.6354625
Original,254,0.68655
Toller Film,254,0.62433125
tolles ende,254,0.6197031249999999
imdb top 250,254,0.615790625
guter Soundtrack,254,0.6052312500000001
Storytelling,254,0.60116875
ausgezeichnetes Skript,254,0.600375
Großartiges Schauspielern,254,0.5726687500000001
Dialog,254,0.5664
klug,254,0.551775
Original,255,0.6216181818181821
Toller Film,255,0.5399454545454546
imdb top 250,255,0.5282789772727273
tolles ende,255,0.5259494318181819
Story,255,0.4975602272727273
Storytelling,255,0.495409659090909
Dialog,255,0.4880931818181818
Mentor,255,0.4803323863636364
Großartiges Schauspielern,255,0.4743005681818183
interessant,255,0.4665085227272728
Original,258,0.6823027777777778
tolles ende,258,0.6253527777777776
Toller Film,258,0.6236388888888889
gutes Schauspielern,258,0.5862388888888888
Großartiges Schauspielern,258,0.5686027777777778
Spannung,258,0.5662805555555556
Storytelling,258,0.5631916666666668
unterhaltsam,258,0.5622027777777777
Story,258,0.5608194444444445
Dialog,258,0.5600722222222222
Original,260,0.6838531250000001
Toller Film,260,0.6207499999999999
imdb top 250,260,0.5891125000000001
unterhaltsam,260,0.580890625
Story,260,0.579909375
Storytelling,260,0.5782562500000001
Kindheit,260,0.5571625
guter Soundtrack,260,0.5564406249999999
tolles ende,260,0.5435375
Mentor,260,0.53693125
Original,262,0.8080510000000001
imdb top 250,262,0.7442020000000001
Großartiges Schauspielern,262,0.7254189999999999
tolles ende,262,0.712548
guter Soundtrack,262,0.6999310000000001
ausgezeichnetes Skript,262,0.6970470000000001
Storytelling,262,0.695353
Toller Film,262,0.6933619999999998
interessant,262,0.6559959999999998
Dialog,262,0.6483949999999999
Original,263,0.7161312499999999
Toller Film,263,0.655859375
imdb top 250,263,0.6484375
tolles ende,263,0.6408499999999999
Storytelling,263,0.63878125
Story,263,0.6208375
unterhaltsam,263,0.6016156249999999
guter Soundtrack,263,0.5935718750000001
gutes Schauspielern,263,0.581028125
Großartiges Schauspielern,263,0.5751375000000001
imdb top 250,264,0.7223031249999999
Original,264,0.67398125
Großartiges Schauspielern,264,0.670265625
Storytelling,264,0.6469906250000002
guter Soundtrack,264,0.6417093750000001
ausgezeichnetes Skript,264,0.62475
erzählt,264,0.5937093750000001
tolles ende,264,0.58946875
Drama,264,0.5849875
Toller Film,264,0.5849125000000001
Original,265,0.5920111111111109
imdb top 250,265,0.5636833333333333
Toller Film,265,0.5393166666666667
Story,265,0.5092666666666668
tolles ende,265,0.5043833333333333
Storytelling,265,0.4980555555555555
Dialog,265,0.4843583333333333
Mentor,265,0.4781833333333334
guter Soundtrack,265,0.4748083333333334
Aktion,265,0.4626444444444445
Original,266,0.6174571428571428
imdb top 250,266,0.5748809523809524
Toller Film,266,0.5473214285714287
Storytelling,266,0.5251511904761905
tolles ende,266,0.5214357142857143
guter Soundtrack,266,0.4961023809523811
Großartiges Schauspielern,266,0.4878345238095238
Dialog,266,0.4866630952380953
interessant,266,0.4800809523809524
Mentor,266,0.4799119047619048
Original,267,0.6966285714285716
imdb top 250,267,0.6388571428571429
Dialog,267,0.6090714285714285
Storytelling,267,0.5922357142857143
tolles ende,267,0.5823428571428572
guter Soundtrack,267,0.5581214285714287
Großartiges Schauspielern,267,0.53625
Toller Film,267,0.5337214285714287
Oscar (beste Regie),267,0.5202642857142856
Kultklassiker,267,0.5189357142857143
imdb top 250,268,0.87790625
Original,268,0.866875
Toller Film,268,0.8166249999999999
Storytelling,268,0.7933749999999999
Großartiges Schauspielern,268,0.7923749999999999
tolles ende,268,0.753125
guter Soundtrack,268,0.750125
Genre: Comedy,268,0.75
ausgezeichnetes Skript,268,0.7455937499999999
interessant,268,0.71234375
Original,270,0.598290625
pg-13,270,0.5612312500000001
Toller Film,270,0.55565
tolles ende,270,0.539978125
Mentor,270,0.526840625
Story,270,0.525625
interessant,270,0.5139250000000001
Schicksal,270,0.5126375000000001
Großartiges Schauspielern,270,0.5081750000000002
gutes Schauspielern,270,0.5077906249999999
Original,271,0.5938650000000003
Toller Film,271,0.5139544444444444
tolles ende,271,0.5131388888888889
Großartiges Schauspielern,271,0.5042477777777777
imdb top 250,271,0.4968572222222223
Dialog,271,0.4892044444444446
Storytelling,271,0.4794311111111114
guter Soundtrack,271,0.472403888888889
ausgezeichnetes Skript,271,0.4661922222222222
interessant,271,0.4658399999999999
Original,272,0.6159049999999999
pg-13,272,0.59326
Schicksal,272,0.5831149999999999
Aktion,272,0.5816899999999999
Story,272,0.5606
unterhaltsam,272,0.5585549999999999
Katastrophe,272,0.554435
Mentor,272,0.5506849999999999
lustiger Film,272,0.541405
tolles ende,272,0.52952
Original,274,0.7757333333333332
Toller Film,274,0.7392916666666668
imdb top 250,274,0.7061722222222223
Story,274,0.6897194444444446
Genre: Comedy,274,0.6555555555555556
Storytelling,274,0.6515000000000001
tolles ende,274,0.6462166666666667
klug,274,0.6056916666666667
guter Soundtrack,274,0.5985388888888888
Mentor,274,0.5869666666666666
Original,275,0.7483312499999999
imdb top 250,275,0.7411218749999999
Toller Film,275,0.7110031250000001
tolles ende,275,0.680846875
Storytelling,275,0.6761624999999999
Großartiges Schauspielern,275,0.6439499999999999
klug,275,0.6417875000000001
gutes Schauspielern,275,0.6301937500000001
ausgezeichnetes Skript,275,0.629928125
guter Soundtrack,275,0.62370625
Original,279,0.5172285714285715
imdb top 250,279,0.4947821428571429
Toller Film,279,0.4823892857142857
Story,279,0.4667714285714285
guter Soundtrack,279,0.4361928571428572
Storytelling,279,0.43583928571428576
tolles ende,279,0.42808571428571424
unterhaltsam,279,0.4132178571428572
Mentor,279,0.4106714285714285
Oscar (beste Regie),279,0.4073428571428572
Original,280,0.5029548076923077
imdb top 250,280,0.4659528846153846
Toller Film,280,0.4382480769230769
Storytelling,280,0.4252817307692308
tolles ende,280,0.4240057692307692
guter Soundtrack,280,0.41325
Großartiges Schauspielern,280,0.3989115384615384
Dialog,280,0.397773076923077
interessant,280,0.3890432692307692
Story,280,0.3812432692307693
Original,281,0.6148086538461538
Toller Film,281,0.5477326923076922
tolles ende,281,0.5391586538461539
Mentor,281,0.5173692307692308
Story,281,0.5078076923076923
Verfolgungsjagd,281,0.4908798076923078
lustiger Film,281,0.4904846153846154
imdb top 250,281,0.4848865384615386
pg-13,281,0.4816798076923077
Großartiges Schauspielern,281,0.4742067307692308
Original,284,0.765255
Mentor,284,0.71919
tolles ende,284,0.6940500000000001
Großartiges Schauspielern,284,0.688135
Toller Film,284,0.6874
Story,284,0.66991
imdb top 250,284,0.6590199999999999
interessant,284,0.6570649999999999
gutes Schauspielern,284,0.653945
Oscar (beste Regie),284,0.6387649999999999
Original,285,0.5167527777777778
Toller Film,285,0.4710527777777777
Story,285,0.4456583333333333
Mentor,285,0.4445472222222223
lustiger Film,285,0.4341777777777777
tolles ende,285,0.4280194444444444
unterhaltsam,285,0.42671111111111104
pg-13,285,0.4143333333333333
Schicksal,285,0.41272777777777775
Verfolgungsjagd,285,0.4059638888888889
