,mean_fit_time,std_fit_time,mean_score_time,std_score_time,param_power_t,param_penalty,param_loss,param_learning_rate,param_eta0,param_alpha,params,split0_test_score,split1_test_score,mean_test_score,std_test_score,rank_test_score,split0_train_score,split1_train_score,mean_train_score,std_train_score
12,7.2357494831085205,0.07158041000366211,7.43626070022583,0.2082667350769043,0.1,elasticnet,squared_loss,constant,0.01,0.01,"{'power_t': 0.1, 'penalty': 'elasticnet', 'loss': 'squared_loss', 'learning_rate': 'constant', 'eta0': 0.01, 'alpha': 0.01}",-0.7798061408749819,-0.7705612428544835,-0.7751836918647327,0.004622449010249219,1,-0.7537283283646478,-0.7563615852204437,-0.7550449567925457,0.0013166284278979812
10,7.866200923919678,0.13587284088134766,7.1828131675720215,0.0001373291015625,0.2,l2,huber,optimal,0.01,0.01,"{'power_t': 0.2, 'penalty': 'l2', 'loss': 'huber', 'learning_rate': 'optimal', 'eta0': 0.01, 'alpha': 0.01}",-0.7859171165325082,-0.7857149634088442,-0.7858160399706762,0.00010107656183200309,2,-0.7758014410460133,-0.7724585896599966,-0.774130015353005,0.001671425693008377
16,7.3590861558914185,0.3445831537246704,8.88184368610382,1.9159117937088013,0.2,elasticnet,huber,constant,0.01,0.0001,"{'power_t': 0.2, 'penalty': 'elasticnet', 'loss': 'huber', 'learning_rate': 'constant', 'eta0': 0.01, 'alpha': 0.0001}",-0.7860947719400202,-0.7886103115757177,-0.787352541757869,0.0012577698178487529,3,-0.7697524964457476,-0.7674965340707495,-0.7686245152582485,0.001127981187499072
7,7.993684649467468,0.841880202293396,7.225499868392944,0.24638628959655762,0.15,elasticnet,squared_loss,constant,0.1,1e-06,"{'power_t': 0.15, 'penalty': 'elasticnet', 'loss': 'squared_loss', 'learning_rate': 'constant', 'eta0': 0.1, 'alpha': 1e-06}",-0.7753970539499702,-0.8007662175340339,-0.7880816357420021,0.012684581792031857,4,-0.7446830137539646,-0.7416048035351641,-0.7431439086445644,0.0015391051094002517
14,8.996098518371582,1.5551886558532715,7.53887403011322,0.2638803720474243,0.15,elasticnet,squared_loss,invscaling,0.001,1e-06,"{'power_t': 0.15, 'penalty': 'elasticnet', 'loss': 'squared_loss', 'learning_rate': 'invscaling', 'eta0': 0.001, 'alpha': 1e-06}",-0.7813571807794231,-0.7961029408352931,-0.7887300608073582,0.007372880027935014,5,-0.7809895919709555,-0.7773912524616603,-0.779190422216308,0.0017991697546476115
19,8.701140761375427,1.330161690711975,9.889182686805725,2.973728060722351,0.1,l1,epsilon_insensitive,invscaling,0.001,0.001,"{'power_t': 0.1, 'penalty': 'l1', 'loss': 'epsilon_insensitive', 'learning_rate': 'invscaling', 'eta0': 0.001, 'alpha': 0.001}",-0.7848061750235363,-0.7926581973177195,-0.7887321861706279,0.003926011147091568,6,-0.7769964085397432,-0.7755151676205132,-0.7762557880801282,0.0007406204596149824
9,7.511176228523254,0.5803567171096802,7.2331589460372925,0.24577581882476807,0.15,l1,epsilon_insensitive,constant,0.1,1e-05,"{'power_t': 0.15, 'penalty': 'l1', 'loss': 'epsilon_insensitive', 'learning_rate': 'constant', 'eta0': 0.1, 'alpha': 1e-05}",-0.8237023832029722,-0.7902146758842549,-0.8069585295436135,0.016743853659358654,7,-0.8153632839514109,-0.7254455886320119,-0.7704044362917114,0.044958847659699486
1,7.104356169700623,0.008252739906311035,7.278552293777466,0.3493306636810303,0.15,l2,squared_loss,constant,0.0001,0.0001,"{'power_t': 0.15, 'penalty': 'l2', 'loss': 'squared_loss', 'learning_rate': 'constant', 'eta0': 0.0001, 'alpha': 0.0001}",-0.7953766648475596,-0.8485772077982836,-0.8219769363229217,0.02660027147536198,8,-0.8296611437972289,-0.8054883757825813,-0.817574759789905,0.012086384007323816
3,7.451287269592285,0.42258405685424805,7.0253777503967285,0.06652712821960449,0.1,l2,squared_loss,constant,0.0001,0.0001,"{'power_t': 0.1, 'penalty': 'l2', 'loss': 'squared_loss', 'learning_rate': 'constant', 'eta0': 0.0001, 'alpha': 0.0001}",-0.7955698066553638,-0.8548348758977373,-0.8252023412765505,0.029632534621186757,9,-0.8298368611042657,-0.8093163933341537,-0.8195766272192098,0.01026023388505598
4,7.03746235370636,0.03165876865386963,7.063410758972168,0.03440237045288086,0.15,elasticnet,squared_loss,constant,0.1,0.01,"{'power_t': 0.15, 'penalty': 'elasticnet', 'loss': 'squared_loss', 'learning_rate': 'constant', 'eta0': 0.1, 'alpha': 0.01}",-0.8700651677691755,-0.8033466617876568,-0.8367059147784162,0.03335925299075937,10,-0.7989481915857052,-0.7566063107845922,-0.7777772511851486,0.021170940400556504
5,9.359906911849976,1.0639894008636475,7.1748576164245605,0.23025202751159668,0.2,l1,squared_loss,invscaling,0.001,0.1,"{'power_t': 0.2, 'penalty': 'l1', 'loss': 'squared_loss', 'learning_rate': 'invscaling', 'eta0': 0.001, 'alpha': 0.1}",-0.8291252786913056,-0.9026522316929915,-0.8658887551921486,0.03676347650084294,11,-0.8801337081609439,-0.8456798403623795,-0.8629067742616617,0.017226933899282204
0,7.741382360458374,0.09882354736328125,7.71368670463562,0.3367280960083008,0.1,l1,epsilon_insensitive,constant,0.01,0.1,"{'power_t': 0.1, 'penalty': 'l1', 'loss': 'epsilon_insensitive', 'learning_rate': 'constant', 'eta0': 0.01, 'alpha': 0.1}",-0.8607145732689175,-0.8737218196457379,-0.8672181964573277,0.00650362318841019,12,-0.8561392914653765,-0.8570148953301155,-0.856577093397746,0.00043780193236953036
11,8.10412061214447,0.5715380907058716,9.601595282554626,1.511780858039856,0.15,l2,epsilon_insensitive,constant,0.1,1e-05,"{'power_t': 0.15, 'penalty': 'l2', 'loss': 'epsilon_insensitive', 'learning_rate': 'constant', 'eta0': 0.1, 'alpha': 1e-05}",-0.9934232143265118,-0.8131836618828129,-0.9033034381046623,0.09011977622184947,13,-0.8794953337333232,-0.7275056914807482,-0.8035005126070357,0.07599482112628753
6,7.101306438446045,0.12080717086791992,7.091812491416931,0.11300075054168701,0.1,elasticnet,squared_loss,invscaling,0.0001,0.01,"{'power_t': 0.1, 'penalty': 'elasticnet', 'loss': 'squared_loss', 'learning_rate': 'invscaling', 'eta0': 0.0001, 'alpha': 0.01}",-1.1934381379967836,-1.2961995798907031,-1.2448188589437432,0.05138072094695978,14,-1.2810340285231376,-1.2069878811981551,-1.2440109548606464,0.037023073662491246
8,7.595763683319092,0.39447617530822754,7.137622356414795,0.031148195266723633,0.1,l1,huber,invscaling,0.001,0.0001,"{'power_t': 0.1, 'penalty': 'l1', 'loss': 'huber', 'learning_rate': 'invscaling', 'eta0': 0.001, 'alpha': 0.0001}",-2.29804294290071,-2.325416895652264,-2.311729919276487,0.013686976375776982,15,-2.342106652490787,-2.2791745190776402,-2.3106405857842134,0.03146606670657337
2,8.282248139381409,0.09803187847137451,8.779009938240051,0.37576329708099365,0.15,l2,huber,invscaling,0.001,1e-06,"{'power_t': 0.15, 'penalty': 'l2', 'loss': 'huber', 'learning_rate': 'invscaling', 'eta0': 0.001, 'alpha': 1e-06}",-2.6594900921637645,-2.68398357067829,-2.6717368314210272,0.012246739257262718,16,-2.6970679171767453,-2.6450340726845902,-2.6710509949306678,0.026016922246077545
17,9.695830702781677,0.9772366285324097,11.722491264343262,3.146627187728882,0.2,l1,epsilon_insensitive,invscaling,0.0001,0.0001,"{'power_t': 0.2, 'penalty': 'l1', 'loss': 'epsilon_insensitive', 'learning_rate': 'invscaling', 'eta0': 0.0001, 'alpha': 0.0001}",-2.9093939084209826,-2.9338810344221025,-2.9216374714215423,0.012243563000559952,17,-2.9434130454137013,-2.8989242534362134,-2.921168649424957,0.022244395988743948
18,11.352890610694885,1.8119744062423706,8.751963376998901,0.9385528564453125,0.1,elasticnet,epsilon_insensitive,optimal,0.001,1e-06,"{'power_t': 0.1, 'penalty': 'elasticnet', 'loss': 'epsilon_insensitive', 'learning_rate': 'optimal', 'eta0': 0.001, 'alpha': 1e-06}",-24.132995330687944,-58.494979196785536,-41.31398726373674,17.180991933048798,18,-24.959828299291093,-58.07104423679091,-41.515436268041,16.55560796874991
13,8.073285222053528,0.26245105266571045,9.338216662406921,0.43498003482818604,0.2,elasticnet,squared_loss,optimal,0.001,0.01,"{'power_t': 0.2, 'penalty': 'elasticnet', 'loss': 'squared_loss', 'learning_rate': 'optimal', 'eta0': 0.001, 'alpha': 0.01}",-713374800.8544595,-554249284.1950653,-633812042.5247624,79562758.32969713,19,-685536665.303382,-560960587.1767569,-623248626.2400694,62288039.06331259
15,7.218811750411987,0.15251755714416504,7.1261513233184814,0.043425798416137695,0.15,elasticnet,squared_loss,optimal,0.0001,1e-06,"{'power_t': 0.15, 'penalty': 'elasticnet', 'loss': 'squared_loss', 'learning_rate': 'optimal', 'eta0': 0.0001, 'alpha': 1e-06}",-14972919475696.79,-46611208101296.27,-30792063788496.527,15819144312799.742,20,-14151330854876.422,-48084583249917.72,-31117957052397.07,16966626197520.648
